"일련번호","예약구분","프로그램명","운영기관","내용","전화여부","확인여부","취소여부","완료여부"
"363","B013","KOR","꼬마 사업가 그레그","비룡소(2007)","","앤드루 크레먼츠","햇살과나무꾼","Y"
"47","B002","KOR","나의 꿈은 글로벌 CEO","월간조선 (2003)","","김해동","","Y"
"64","B004","KOR","경기 인천","국립민속박물관(2014)","","","","Y"
"71","B004","KOR","춘곡 고희동과 친구들","종로구(2013)","","종로구청장 김영종","","Y"
"78","B004","KOR","1950 군산 6월의 꽃","군산근대역사박물관 국립민속박물관(2015)","","","","Y"
"79","B004","KOR","군자의 덕 자연에서 배우다","목포자연사박물관 국립민속박물관(2013)","","","","Y"
"80","B004","KOR","바라고 바라다","숙명여자대학교박물관 국립민속박물관(2014)","","","","Y"
"82","B004","KOR","쉼 흙길 걷다","국립민속박물관(2015)","","","","Y"
"83","B004","KOR","아리랑 그리고 신념의 조인","공군박물관 국립민속박물관(2015)","","","","Y"
"85","B004","KOR","IN FLOW MOTION","통인옥션갤러리","","","","Y"
"86","B004","KOR","혜곡 최순우가 찾은 우리 문화 목가구","혜곡최순우기념관(2012)","","김인회","","Y"
"87","B004","KOR","철농 이기우 인연을 새기다","혜곡최순우기념관(2008)","","김인회","","Y"
"88","B004","KOR","철농 이기우 인연을 새기다","혜곡최순우기념관(2008)","","김인회","","Y"
"89","B004","KOR","철농 이기우 인연을 새기다","혜곡최순우기념관(2008)","","김인회","","Y"
"90","B004","KOR","변종하 展","혜곡최순우기념관(2007)","","김인회","","Y"
"91","B004","KOR","오늘도 봄날이다","승세 한숙자(2010)","","한숙자","","Y"
"92","B004","KOR","이호신 초대전","이호신(2011)","","이호신","","Y"
"94","B004","KOR","석굴암 백년의 빛","동국대학교출판부(2009)","","성낙주","","Y"
"95","B004","KOR","한국고대 회화의 흔적","이화여자대학교출판부(2004)","","김홍남","","Y"
"96","B004","KOR","예술이 교육에 미치는 놀라운 효과","한길아트(2007)","","앤 뱀포드","백령","Y"
"97","B004","KOR","반달할아버지 윤극영","서울특별시(2014)","","","","Y"
"98","B004","KOR","흰 빛의 세계 박영숙 백자 展","혜곡최순우기념관(2015)","","","","Y"
"99","B004","KOR","김환기 백년되어 고향에 돌아오다","광주시립미술관(2013)","","황영성","","Y"
"100","B004","KOR","바우하우스의 화가들 - 모더니즘의 정신","호암갤러리(1996)","","","","Y"
"101","B004","KOR","Paris National museum ALBUM","National museum PARIS(2001)","","","","Y"
"102","B004","KOR","소리 쇠의 혼을 깨우다","국립민속박물관","","","","Y"
"103","B004","KOR","한국의 도교 문화","국립중앙박물관(2013)","","국립중앙박물관","","Y"
"104","B004","KOR","약장 건강을 염원하다","국립민속박물관(2014)","","","","Y"
"105","B004","KOR","소리 인간의 염원을 담다","국립민속박물관(2014)","","","","Y"
"107","B004","KOR","홍남에서 거제까지","국립민속박물관(2013)","","","","Y"
"108","B004","KOR","우리의 불그릇 등잔","국립민속박물관(2014)","","","","Y"
"109","B004","KOR","달력 시간의 자취","국립민속박물관(2014)","","","","Y"
"111","B004","KOR","징비록","국립민속박물관(2015)","","","","Y"
"112","B004","KOR","국립민속박물관","국립민속박물관(2009)","","","","Y"
"113","B004","KOR","양평을 거닐다","국립민속박물관(2014)","","","","Y"
"114","B004","KOR","박물관과 유해생물 관리","국립민속박물관(2008)","","홍기정","","Y"
"115","B004","KOR","행복을 부르는 양","국립민속박물관(2015)","","","","Y"
"116","B004","KOR","너그러움과 해학","학고재","","정양모","","Y"
"117","B004","KOR","추사 김정희 우성 김종영","학고재","","","","Y"
"118","B004","KOR","추사 김정희 우성 김종영","학고재(2015)","","학고재","","Y"
"119","B004","KOR","구본창 이승희 조선백자의 혼을 담다","혜곡최순우기념관(2015)","","","","Y"
"121","B004","KOR","제 12회 한국문화재기능인 작품전","한국문화재기능인협회(2012)","","","","Y"
"122","B004","KOR","기원을 담은 돈 별전","국립민속박물관(2004)","","","","Y"
"123","B004","KOR","혜곡 최순우가 본 부석사 무량수전","혜곡최순우기념관(2011)","","김인회","","Y"
"125","B005","KOR","인쇄시대의 도래 또 하나의 도전","내셔널트러스트 문화유산기금(2014)","","김영종","","Y"
"126","B005","KOR","무량수전 배흘림 기둥에 기대서서","학고재(2014)","","최순우","","Y"
"127","B005","KOR","혜곡 최순우 한국미의 순례자","김영사(2012)","","이충렬","","Y"
"128","B005","KOR","돈암동","연두와파랑(2012)","","성북구청 문화쳬육과","","Y"
"129","B005","KOR","정릉동 잊혀져 가는 우리동네 이야기를 찾아서","성북구청문화체육과","","","","Y"
"130","B005","KOR","삼선동 동소문동 잊혀져 가는 우리동네 이야기를 찾아서","성북구청문화체육과","","","","Y"
"131","B005","KOR","성북동 잊혀져 가는 우리동네 이야기를 찾아서1","성북구청문화체육과","","","","Y"
"132","B005","KOR","성북동 잊혀져 가는 우리동네 이야기를 찾아서2","성북구청문화체육과","","","","Y"
"133","B005","KOR","성북동 잊혀져 가는 우리동네 이야기를 찾아서3","성북구청문화체육과","","","","Y"
"134","B005","KOR","성북동 사람들의 마을 이야기 창간호","성북구청문화체육과","","","","Y"
"135","B005","KOR","성북동 사람들의 마을 이야기 3호","성북구청문화체육과","","","","Y"
"136","B005","KOR","성북동 사람들의 마을 이야기 4호","성북구청문화체육과","","","","Y"
"137","B005","KOR","성북동 사람들의 마을 이야기 5호","성북구청문화체육과","","","","Y"
"138","B005","KOR","북촌 가꾸기 사례연구","서울시정개발연구원(2000)","","","","Y"
"139","B006","KOR","안산시 원곡동","국립민속박물관(2015)","","","","Y"
"140","B006","KOR","한국민속신앙사전(영문)","국립민속박물관(2013)","","","","Y"
"141","B006","KOR","남해의 보석 물건마을","국립민속박물관(2013)","","","","Y"
"293","B009","KOR","람세스1","문학동네","","크리스티앙 자크","김정란","Y"
"326","B012","KOR","희망은 깨어있네","마음산책","","이해인","","Y"
"13","B001","KOR","신경과 화학 전달","이화여자대학교출판부","","고토 히데키","구영순","Y"
"26","B002","KOR","글로벌 시대의 초일류 기업","명진출판","","이상문","","Y"
"142","B006","KOR","조창남 김순점 부부의 살림살이","국립민속박물관(2013)","","","","Y"
"143","B006","KOR","노를 저어 갔던 율지 다리 건너 만나다","국립민속박물관(2013)","","","","Y"
"144","B006","KOR","성윤용 김숙자 부부의 살림살이","국립민속박물관(2013)","","","","Y"
"145","B006","KOR","경남의 민속문화","국립민속박물관(2013)","","","","Y"
"146","B006","KOR","강원별곡","강원도 국립민속박물관(2014)","","","","Y"
"147","B006","KOR","이진숭 묘 출토복식","국립민속박물관(2010)","","","","Y"
"150","B006","KOR","정성채 박사 기증 화폐 특별전","국립민속박물관(2011)","","","","Y"
"151","B006","KOR","강원도 산간지역의 땟거리 옥수수 감자 메밀","국립민속박물관(2014)","","박선주","","Y"
"153","B006","KOR","내 이름은 폴른칫 그리고 현수엄마","국립민속박물관(2012)","","","","Y"
"155","B006","KOR","최숙정 할머니의 살림살이","국립민속박물관(2014)","","김창호 외","","Y"
"156","B006","KOR","모래 위에 세운 터전 속초시 청호동","국립민속박물관(2014)","","김창호 외","","Y"
"157","B006","KOR","청바지","국립민속박물관(2014)","","강경표 외","","Y"
"158","B006","KOR","강원도 인제의 토종벌과 토봉꾼","국립민속박물관(2014)","","박혜령","","Y"
"159","B006","KOR","마을살이 집살이 사람살이","국토연구원","","진영효 외","","Y"
"160","B006","KOR","마을을 묻다","국토연구원","","진영효","","Y"
"161","B006","KOR","아리랑   ","국립민속박물관(2012)","","","","Y"
"162","B006","KOR","표트르대제 한국자료","국립민속박물관(2009)","","","","Y"
"163","B006","KOR","20세기 경남의 가면극과 공예","국립민속박물관(2013)","","정상박","","Y"
"164","B006","KOR","남이상자","나미북스","","강우현","","Y"
"165","B006","KOR","살림살이","국립민속박물관(2015)","","","","Y"
"166","B006","KOR","경기도 안성시 죽산면 매산리01","국립민속박물관(2015)","","이경효 외","","Y"
"167","B006","KOR","홍성철 안영례 가족의 살림살이","국립민속박물관(2015)","","이경효 외","","Y"
"169","B006","KOR","하종성 양영순 부부의 살림살이","국립민속박물관(2015)","","김형준","","Y"
"170","B006","KOR","경기의 민속문화","국립민속박물관(2015)","","허용호","","Y"
"171","B006","KOR","창신동 '나 여기 있어요!'","서울역사박물관(2013)","","강홍빈","","Y"
"172","B007","KOR","정보 사회에서 미디어와 저작권","진한도서(2000)","","나낙균","","Y"
"173","B007","KOR","뉴미디어 사업 현황과 경영 전략","한국언론재단(2000)","","","","Y"
"174","B007","KOR","당신이 바로 디지털방송PD","박문각","","배종대","","Y"
"175","B007","KOR","사이버 문화","문화출판사","","피에르 레비","김동윤 외","Y"
"176","B007","KOR","사이버 커뮤니케이션론","녹두","","유승호","","Y"
"177","B007","KOR","다채널 TV론","커뮤니케이션북스(1998)","","윤석민","","Y"
"178","B007","KOR","미디어의 이해","커뮤니케이션북스(2001)","","마샬 맥루한","박정규","Y"
"179","B007","KOR","비판커뮤니케이션과 문화이론","나남출판","","박명진","","Y"
"180","B007","KOR","디지털 방송","세종출판사(2000)","","박지형","","Y"
"181","B008","KOR","서울 2천년사8","서울특별시 시사편찬위원회(2014)","","박원순","","Y"
"182","B008","KOR","서울 2천년사9","서울특별시 시사편찬위원회(2014)","","박원순","","Y"
"183","B008","KOR","서울 2천년사10","서울특별시 시사편찬위원회(2014)","","박원순","","Y"
"184","B008","KOR","서울 2천년사11","서울특별시 시사편찬위원회(2014)","","박원순","","Y"
"185","B008","KOR","서울 2천년사12","서울특별시 시사편찬위원회(2014)","","박원순","","Y"
"186","B008","KOR","서울 2천년사13","서울특별시 시사편찬위원회(2014)","","박원순","","Y"
"187","B008","KOR","서울 2천년사14","서울특별시 시사편찬위원회(2014)","","박원순","","Y"
"188","B008","KOR","서울 2천년사15","서울특별시 시사편찬위원회(2014)","","박원순","","Y"
"189","B008","KOR","서울 2천년사16","서울특별시 시사편찬위원회(2014)","","박원순","","Y"
"190","B008","KOR","서울 2천년사17","서울특별시 시사편찬위원회(2014)","","박원순","","Y"
"191","B008","KOR","서울 2천년사18","서울특별시 시사편찬위원회(2014)","","박원순","","Y"
"192","B008","KOR","서울 2천년사19","서울특별시 시사편찬위원회(2014)","","박원순","","Y"
"193","B008","KOR","서울 2천년사20","서울특별시 시사편찬위원회(2014)","","박원순","","Y"
"194","B008","KOR","서울 2천년사21","서울특별시 시사편찬위원회(2014)","","박원순","","Y"
"195","B008","KOR","서울 2천년사22","서울특별시 시사편찬위원회(2014)","","박원순","","Y"
"196","B008","KOR","서울 2천년사23","서울특별시 시사편찬위원회(2014)","","박원순","","Y"
"197","B008","KOR","서울 2천년사24","서울특별시 시사편찬위원회(2014)","","박원순","","Y"
"198","B008","KOR","서울 2천년사25","서울특별시 시사편찬위원회(2014)","","박원순","","Y"
"199","B008","KOR","서울 사람들의 죽음 그리고 삶","서울특별시 시사편찬위원회(2012)","","송현동","","Y"
"200","B008","KOR","서울 사람들의 혼인 혼례 결혼","서울특별시 시사편찬위원회(2012)","","박혜인","","Y"
"201","B008","KOR","서울의 제사 감사와 기원의 몸짓","서울특별시 시사편찬위원회(2013)","","박종천","","Y"
"202","B008","KOR","서울의 전통음식","서울특별시 시사편찬위원회(2014)","","주영하","","Y"
"331","B012","KOR","버리고 갈 것만 남아서 참 홀가분하다","마로니에북스(2008)","","박경리","","Y"
"375","B013","KOR","누리야 누리야","문공사(2006)","","양귀자","","Y"
"398","B013","KOR","셰익스피어 명작","웅진닷컴(2003)","","조은수","","Y"
"7","B001","KOR","쉽게 찾는 우리 버섯","현암사","","김경숙","","Y"
"204","B008","KOR","시민을 위한 서울역사 2000년","서울특별시 시사편찬위원회(2010)","","노중국 외","","Y"
"205","B008","KOR","그래도 나는 서울이 좋다","페이퍼스토리","","오명욱","","Y"
"206","B008","KOR","한성백제사1 성격과 문화기반","서울특별시 시사편찬위원회(2008)","","오세훈","","Y"
"207","B008","KOR","한성백제사2 건국과 성장","서울특별시 시사편찬위원회(2008)","","오세훈","","Y"
"208","B008","KOR","한성백제사3 왕도와 방어체계","서울특별시 시사편찬위원회(2008)","","오세훈","","Y"
"209","B008","KOR","한성백제사4 대외관계와 문물교류","서울특별시 시사편찬위원회(2008)","","오세훈","","Y"
"210","B008","KOR","한성백제사5 생활과 문화","서울특별시 시사편찬위원회(2008)","","오세훈","","Y"
"211","B008","KOR","서울의 문화재1","서울특별시 시사편찬위원회(2011)","","박원순","","Y"
"212","B008","KOR","서울의 문화재2","서울특별시 시사편찬위원회(2011)","","박원순","","Y"
"213","B008","KOR","서울의 문화재3","서울특별시 시사편찬위원회(2011)","","박원순","","Y"
"214","B008","KOR","서울의 문화재4","서울특별시 시사편찬위원회(2011)","","박원순","","Y"
"215","B008","KOR","서울의 문화재5","서울특별시 시사편찬위원회(2011)","","박원순","","Y"
"217","B008","KOR","다시 서울문화를 이야기하다","서울특별시 시사편찬위원회(2011)","","송도영","","Y"
"218","B008","KOR","시민을 위한 서울역사 2000년(영어)","서울특별시 시사편찬위원회(2010)","","노중국 외","","Y"
"219","B008","KOR","시민을 위한 서울역사 2000년(일어)","서울특별시 시사편찬위원회(2010)","","노중국 외","","Y"
"220","B008","KOR","시민을 위한 서울역사 2000년(중국어)","서울특별시 시사편찬위원회(2010)","","노중국 외","","Y"
"221","B008","KOR","서울의 시장","서울특별시 시사편찬위원회(2007)","","박은숙 외","","Y"
"223","B008","KOR","일상 속 20세기 도시문화유산의 가치와 보존","서울특별시(2010)","","","","Y"
"224","B008","KOR","일상 속 20세기 도시문화유산의 가치와 보존","서울특별시(2010)","","","","Y"
"225","B008","KOR","일상 속 20세기 도시문화유산의 가치와 보존","서울특별시(2010)","","","","Y"
"226","B008","KOR","일상 속 20세기 도시문화유산의 가치와 보존","서울특별시(2010)","","","","Y"
"227","B008","KOR","한성의 정체성 회복 이야기","한울(2014)","","임희지","","Y"
"228","B008","KOR","김한용의 서울 풍경","서울역사박물관(2013)","","강홍빈","","Y"
"229","B008","KOR","이야기를 따라 한양도성을 걷다","서울특별시","","","","Y"
"230","B008","KOR","100년의 테일러 종로양복점","국립민속박물관(2014)","","정붓샘","","Y"
"234","B008","KOR","동네再발견","서울특별시(2008)","","","","Y"
"235","B008","KOR","동네再발견","서울특별시(2008)","","","","Y"
"236","B008","KOR","동네再발견","서울특별시(2008)","","","","Y"
"237","B008","KOR","서울 마을을 품다","서울특별시","","","","Y"
"239","B008","KOR","삼청문화","삼청문화진흥원(2012)","","","","Y"
"240","B009","KOR","장길산1","창작과비평사(1995)","","황석영","","Y"
"241","B009","KOR","장길산2","창작과비평사(1995)","","황석영","","Y"
"242","B009","KOR","장길산3","창작과비평사(1995)","","황석영","","Y"
"243","B009","KOR","장길산4","창작과비평사(1995)","","황석영","","Y"
"244","B009","KOR","장길산5","창작과비평사(1995)","","황석영","","Y"
"245","B009","KOR","장길산6","창작과비평사(1995)","","황석영","","Y"
"246","B009","KOR","장길산7","창작과비평사(1995)","","황석영","","Y"
"247","B009","KOR","장길산8","창작과비평사(1995)","","황석영","","Y"
"248","B009","KOR","장길산9","창작과비평사(1995)","","황석영","","Y"
"249","B009","KOR","장길산10","창작과비평사(1995)","","황석영","","Y"
"250","B009","KOR","태백산맥1","한길사(1986)","","조정래","","Y"
"251","B009","KOR","태백산맥2","한길사(1986)","","조정래","","Y"
"252","B009","KOR","태백산맥3","한길사(1986)","","조정래","","Y"
"253","B009","KOR","태백산맥4","한길사(1987)","","조정래","","Y"
"254","B009","KOR","태백산맥5","한길사(1987)","","조정래","","Y"
"255","B009","KOR","태백산맥6","한길사(1988)","","조정래","","Y"
"789","B013","KOR","내 마음은 변신 로봇","재능교육","","강나루","","Y"
"790","B013","KOR","혼자서도 잘자","재능교육","","강나루","","Y"
"792","B013","KOR","궁금한 게 많은 악어 임금님","아이세움","","이지현","","Y"
"793","B013","KOR","우리아이 자연 생테 관찰 공룡 세계","금잔디","","","","Y"
"794","B013","KOR","신들의 위대한 탄생","한얼교육","","신화나라 탐사회","","Y"
"795","B013","KOR","최고의 신 왕 중의 왕 제우스","한얼교육","","신화나라 탐사회","","Y"
"796","B013","KOR","올림포스에 사는 12신들","한얼교육","","신화나라 탐사회","","Y"
"797","B013","KOR","프로메테우스와 판도라 상자","한얼교육","","신화나라 탐사회","","Y"
"798","B013","KOR","효자 데우칼라온과 멸망의 대홍수","한얼교육","","신화나라 탐사회","","Y"
"799","B013","KOR","궁술의 신 아폴론과 월계수 처녀 다프네","한얼교육","","신화나라 탐사회","","Y"
"800","B013","KOR","멋쟁이 제우스와 질투의 여신 헤라","한얼교육","","신화나라 탐사회","","Y"
"801","B013","KOR","백발백중 사냥의 여신 아르테미스","한얼교육","","신화나라 탐사회","","Y"
"350","B013","KOR","493백제 시간여행 4 바다를 건넌 백제사람들","한성백제박물관(2012)","","한성백제박물관","","Y"
"387","B013","KOR","목민심서","파란자전거((2008)","","이성률","","Y"
"48","B002","KOR","부자가족의 경제교과서","더난출판 (2004)","","이나연","","Y"
"69","B004","KOR","산수화 이상향을 꿈꾸다","국립중앙박물관(2014)","","국립중앙박물관","","Y"
"802","B013","KOR","태양신의 아들 파에톤과 태양마차","한얼교육","","신화나라 탐사회","","Y"
"803","B013","KOR","미다스 임금님 귀는 당나귀 귀","한얼교육","","신화나라 탐사회","","Y"
"804","B013","KOR","곡식의 여신 데메테르와 페르세포네의 사계절","한얼교육","","신화나라 탐사회","","Y"
"805","B013","KOR","에우로페를 찾아나선 카드모스","한얼교육","","신화나라 탐사회","","Y"
"806","B013","KOR","사랑의 여신 아프로디테와 바람꽃 아도니스","한얼교육","","신화나라 탐사회","","Y"
"807","B013","KOR","프시케와 사랑에 빠진 장난꾸러기 에로스","한얼교육","","신화나라 탐사회","","Y"
"809","B013","KOR","전쟁의 여신 아테나와 거미 아라크네","한얼교육","","신화나라 탐사회","","Y"
"810","B013","KOR","바위로 변한 니오베의 눈물","한얼교육","","신화나라 탐사회","","Y"
"811","B013","KOR","슈퍼맨 페르세우스와 괴물 메두사","한얼교육","","신화나라 탐사회","","Y"
"812","B013","KOR","황금빛 양과 계모 이노","한얼교육","","신화나라 탐사회","","Y"
"813","B013","KOR","슬기로운 이이손의 끊임없는 모험","한얼교육","","신화나라 탐사회","","Y"
"814","B013","KOR","아르고 호를 탄 50명의 영웅들","한얼교육","","신화나라 탐사회","","Y"
"815","B013","KOR","사랑에 빠진 마법사 공주 메데이아","한얼교육","","신화나라 탐사회","","Y"
"816","B013","KOR","영웅 중의 영웅 헤라클레스","한얼교육","","신화나라 탐사회","","Y"
"817","B013","KOR","헤라클레스의 열두 가지 모험","한얼교육","","신화나라 탐사회","","Y"
"818","B013","KOR","아테네를 구한 영웅 테세우스","한얼교육","","신화나라 탐사회","","Y"
"819","B013","KOR","조각상을 사랑한 조각가 피그말리온","한얼교육","","신화나라 탐사회","","Y"
"820","B013","KOR","오이디푸스와 스핑크스의 수수께끼","한얼교육","","신화나라 탐사회","","Y"
"821","B013","KOR","오르페우스의 아름답고 슬픈 사랑","한얼교육","","신화나라 탐사회","","Y"
"822","B013","KOR","술의 신 디오니소스 또는 바커스","한얼교육","","신화나라 탐사회","","Y"
"823","B013","KOR","하늘을 날다가 떨어진 이카로스","한얼교육","","신화나라 탐사회","","Y"
"824","B013","KOR","교활하고 잔꾀 많은 시시포스","한얼교육","","신화나라 탐사회","","Y"
"825","B013","KOR","날개 달린 페가소스와 절름발이 벨레로폰","한얼교육","","신화나라 탐사회","","Y"
"826","B013","KOR","어리석은 탄탈로스와 식충이 에리식톤","한얼교육","","신화나라 탐사회","","Y"
"828","B013","KOR","새벽의 여신 에오스와 의사 아스클레피오스","한얼교육","","신화나라 탐사회","","Y"
"829","B013","KOR","세상에서 가장 아름다운 여신","한얼교육","","신화나라 탐사회","","Y"
"830","B013","KOR","왕자 파리스와 왕비 헬레네","한얼교육","","신화나라 탐사회","","Y"
"831","B013","KOR","트로이를 둘러싼 대각축전","한얼교육","","신화나라 탐사회","","Y"
"832","B013","KOR","불붙은 트로이 전쟁의 소용돌이","한얼교육","","신화나라 탐사회","","Y"
"833","B013","KOR","고향 앞으로 오디세우스","한얼교육","","신화나라 탐사회","","Y"
"835","B013","KOR","은하수와 별자리 여행","한얼교육","","신화나라 탐사회","","Y"
"836","B013","KOR","원숭이의 꾀에 넘어간 악어","오로라북스","","실비아 두보보이","김영주","Y"
"837","B013","KOR","주둥이가 긴 오리너구리","오로라북스","","실비아 두보보이","김영주","Y"
"838","B013","KOR","거미 인간의 지혜","오로라북스","","실비아 두보보이","김영주","Y"
"839","B013","KOR","사자가 과일을 먹지 않는 이유","오로라북스","","실비아 두보보이","김영주","Y"
"840","B013","KOR","행운의 북극곰","오로라북스","","실비아 두보보이","김영주","Y"
"841","B013","KOR","영리한 개구리","오로라북스","","실비아 두보보이","김영주","Y"
"842","B013","KOR","은색 까마귀","오로라북스","","실비아 두보보이","김영주","Y"
"843","B013","KOR","반딧불이와 가시나무","오로라북스","","실비아 두보보이","김영주","Y"
"844","B013","KOR","용의 뿔은 누구의 것일까","오로라북스","","실비아 두보보이","김영주","Y"
"845","B013","KOR","다리를 바꾼 여우와 사슴","오로라북스","","실비아 두보보이","김영주","Y"
"846","B013","KOR","새와 꿀벌의 우정","오로라북스","","실비아 두보보이","김영주","Y"
"847","B013","KOR","호랑이의 얼룩무늬","오로라북스","","실비아 두보보이","김영주","Y"
"848","B013","KOR","바닷물이 짠 이유","오로라북스","","실비아 두보보이","김영주","Y"
"849","B013","KOR","허풍쟁이 토끼","오로라북스","","실비아 두보보이","김영주","Y"
"850","B013","KOR","동물들의 밤","오로라북스","","실비아 두보보이","김영주","Y"
"851","B013","KOR","누가 밤을 만들었을까","오로라북스","","실비아 두보보이","김영주","Y"
"853","B013","KOR","곡식 나누기","오로라북스","","실비아 두보보이","김영주","Y"
"854","B013","KOR","해님과 고슴도치","오로라북스","","실비아 두보보이","김영주","Y"
"855","B013","KOR","선인장과 강아지풀","오로라북스","","실비아 두보보이","김영주","Y"
"856","B013","KOR","옥수수 이야기","오로라북스","","실비아 두보보이","김영주","Y"
"857","B013","KOR","태양을 훔친 까마귀","오로라북스","","실비아 두보보이","김영주","Y"
"376","B013","KOR","당나귀 덩키덩키","웅진닷컴(2002)","","로저 뒤봐젱","서애경","Y"
"399","B013","KOR","소년과 작은 새","푸른길(1996)","","다니엘 문두루쿠","문세원","Y"
"418","B013","KOR","어머니에 대한 지극한 효심과 사랑을 담다 구운몽","파란자전거(2009)","","김만중","","Y"
"858","B013","KOR","왜가리와 두루미","오로라북스","","실비아 두보보이","김영주","Y"
"859","B013","KOR","앵무새가 지켜 준 사랑","오로라북스","","실비아 두보보이","김영주","Y"
"860","B013","KOR","연못 속의 휘트 공주","오로라북스","","실비아 두보보이","김영주","Y"
"861","B013","KOR","거만한 코끼리","오로라북스","","실비아 두보보이","김영주","Y"
"862","B013","KOR","거북이 바다로 간 까닭","오로라북스","","실비아 두보보이","김영주","Y"
"863","B013","KOR","참을 수 없는 새","오로라북스","","실비아 두보보이","김영주","Y"
"864","B013","KOR","도마뱀과 카멜레온","오로라북스","","실비아 두보보이","김영주","Y"
"865","B013","KOR","하늘이 먼 곳에 있는 이유","오로라북스","","실비아 두보보이","김영주","Y"
"869","B013","KOR","김홍도","프뢰벨","","우리누리","","Y"
"870","B013","KOR","공자","프뢰벨","","푸 쯔잉","","Y"
"871","B013","KOR","빌 게이츠","프뢰벨","","김종렬","","Y"
"872","B013","KOR","신사임당","프뢰벨","","황선미","","Y"
"874","B013","KOR","Big and Small","삼성출판사","","김평숙","","Y"
"875","B013","KOR","The Circus Men","삼성출판사","","김율희","","Y"
"876","B013","KOR","The Magic Box","삼성출판사","","김율희","","Y"
"877","B013","KOR","Four Umbrellas","삼성출판사","","이혜옥","","Y"
"878","B013","KOR","It Is a Toy","삼성출판사","","김율희","","Y"
"879","B013","KOR","Noisy Noisy Cookies","삼성출판사","","차보금","","Y"
"880","B013","KOR","My Diary","삼성출판사","","김세실","","Y"
"881","B013","KOR","Panda`s Every Day","삼성출판사","","김율희","","Y"
"882","B013","KOR","The Old Clock`s New Hands","삼성출판사","","최향숙","","Y"
"883","B013","KOR","What Time Is It?","삼성출판사","","최향숙","","Y"
"884","B013","KOR","The Mother Moon","삼성출판사","","김율희","","Y"
"885","B013","KOR","The Witch`s Wall","삼성출판사","","김세실","","Y"
"886","B013","KOR","Little Lamb`s Shopping Trip","삼성출판사","","김세실","","Y"
"887","B013","KOR","The Shopping List","삼성출판사","","김세실","","Y"
"888","B013","KOR","Oh Mr. Hunter","삼성출판사","","김율희","","Y"
"889","B013","KOR","I Am the king","삼성출판사","","김세실","","Y"
"890","B013","KOR","A Knight and a Princess","삼성출판사","","김율희","","Y"
"891","B013","KOR","My Special Plan","삼성출판사","","김세실","","Y"
"892","B013","KOR","아기곰과 도깨비","계몽사","","조경숙","","Y"
"894","B013","KOR","장보고","한국퍼킨스","","김부식","","Y"
"895","B013","KOR","작은 집이 있어요","한국프뢰벨주식회사","","바로보 린드그렌","김서정","Y"
"896","B013","KOR","꼬마 생쥐에게 과자를 주지 마세요","한국프뢰벨주식회사","","라우라 조페 누메로프","토끼와 거북","Y"
"897","B013","KOR","왕사마귀 톡톡이","한국루벤스","","다카이에 히로시게","윤태중","Y"
"898","B013","KOR","고추좀잠자리 사락이","한국루벤스","","다카이에 히로시게","윤태중","Y"
"899","B013","KOR","일개미 코코","한국루벤스","","다카이에 히로시게","윤태중","Y"
"900","B013","KOR","배추 흰나비 하양이","한국루벤스","","다카이에 히로시게","윤태중","Y"
"901","B013","KOR","동물 나라의 서커스","계몽사","","이운","","Y"
"902","B013","KOR","엄마공룡이 알을 낳았어요","한국프뢰벨주식회사","","안나 커리","이상희","Y"
"903","B013","KOR","우리도 하늘을 날아요","계몽사","","이운","","Y"
"904","B013","KOR","요모와 조모","한국프뢰벨주식회사","","줄리 사이크","김서정","Y"
"905","B013","KOR","플랜더스의 개","지경사","","위다","김진섭","Y"
"906","B013","KOR","똑똑 문을 열어봐 뽀로로!","대원키즈","","","","Y"
"907","B013","KOR","똥나와라 똥똥","국립민속박물관 어린이박물관(2014)","","천진기","","Y"
"908","B013","KOR","도끼소년 수흐와 하얀말 차가","국립민속박물관 (2010)","","장장식","","Y"
"909","B013","KOR","거북이와 원숭이","국립민속박물관(2011)","","장장식","","Y"
"910","B013","KOR","총명한 아기사슴","국립민속박물관(2014)","","김형준","","Y"
"911","B013","KOR","비빔밥 이야기","우석대학교 출판부","","라종일","","Y"
"912","B013","KOR","비빕밥 이야기(영문)","우석대학교 출판부","","라종일","","Y"
"913","B013","KOR","자살토끼","거름(2003)","","앤디 라일리","","Y"
"914","B013","KOR","욕심돼지","지식프레임(2009)","","앤디 라일리","","Y"
"915","B013","KOR","선인장 호텔","마루벌(1995)","","브렌다 기버슨","이명희","Y"
"917","B013","KOR","나의 살던 고향은","재미마주(2013)","","원동은","","Y"
"919","B013","KOR","그래 너도 하면 되는거야","늘푸른아이들(2006)","","김형곤 외","","Y"
"920","B013","KOR","마사코의 질문","푸른책들(2007)","","손연자","","Y"
"921","B013","KOR","선생님도 놀란 초등과학 뒤집기","성우주니어(2008)","","홍옥수","","Y"
"922","B014","KOR","개 이야기","창해(2000)","","루이지 보이타니 외","김이정","Y"
"923","B014","KOR","우리 개 100배 똑똑하게 키우기","보누스","","후지이 사토시","최지용","Y"
"924","B014","KOR","애완견가이드","하서","","모리 요시오","문연숙","Y"
"925","B014","KOR","내가 사랑했던 개 율리시즈","현대문학","","로제 그르니에","김화영","Y"
"926","B014","KOR","찌루야 사랑해","시공사","","이상진","","Y"
"927","B014","KOR","개 우리의 오랜친구","국립민속박물관","","","","Y"
"929","B015","KOR","힐링 소사이어티","한문화(2001)","","이승헌","","Y"
"332","B012","KOR","오름에 피는 꽃","제주문화(2000)","","김순이","","Y"
"351","B013","KOR","493백제 시간여행 5 백제를 빛낸 사람들","한성백제박물관(2012)","","한성백제박물관","","Y"
"428","B013","KOR","일기 감추는 날","웅진주니어(2005)","","황선미","","Y"
"14","B001","KOR","녹즙으로 고친병","장생(1993)","","장생 편집부","","Y"
"21","B002","KOR","변화를 두려워 하면 1등은 없다","더난","","오영교","","Y"
"28","B002","KOR","CEO 와인에서 경영을 얻다","마젤란(2007)","","진의정","","Y"
"35","B002","KOR","전사원이 참여하는 기업비전 만들기","명진출판","","시오야 미치","이광현 외","Y"
"72","B004","KOR","분향 향로와 향","혜곡최순우기념관(2014)","","혜곡최순우기념관","","Y"
"930","B015","KOR","이별에도 예의가 필요하다","한겨례출판","","김선주","","Y"
"931","B015","KOR","이별에도 예의가 필요하다","한겨례출판","","김선주","","Y"
"932","B015","KOR","죽음 그 마지막 성장","청계(2001)","","부위훈","전병술","Y"
"933","B015","KOR","샘에게 보내는 편지","문학동네(2006)","","대니얼 고틀립","이문재 외","Y"
"934","B015","KOR","바보Zone","여백(2010)","","차동엽","","Y"
"935","B015","KOR","친구는 돈보다 소중하다","생각의 나무","","앤드류 매튜스","김승욱","Y"
"936","B015","KOR","멀리 가려면 함께 가라","갤리온(2009)","","이종선","","Y"
"937","B015","KOR","나는 내가 소중하다","북폴리오B(2007)","","호르스트 코넨","한희진","Y"
"938","B015","KOR","너만의 북극성을 따라라","가야미디어","","오한숙희","","Y"
"939","B015","KOR","내 안의 나","정신세계사","","조셉 베너","유영일","Y"
"940","B015","KOR","고슴도치 길들이기","해냄","","이름트라우트 타르","박정미","Y"
"941","B015","KOR","내 안의 창의력을 깨우는 일곱가지 법칙","한길아트","","켄 로빈스","유소영","Y"
"942","B015","KOR","여자는 차마 말 못하고 남자는 전혀 모르는 것들","프레미엄북스","","존 그레이","서현정","Y"
"943","B015","KOR","사람은 왜 만족을 모르는가?","에코의서재","","로리 에슈너 외","조영희","Y"
"944","B015","KOR","나는 죽을 때까지 재미있게 살고싶다","갤리온(2013)","","이근후","","Y"
"945","B015","KOR","휴식","걷는나무","","율리히 슈나벨","김희상","Y"
"947","B015","KOR","행복한 이기주의자","21세기북스(2006)","","웨인 다이어","오현정","Y"
"948","B015","KOR","마음에게 말걸기","문학동네(2009)","","대니얼 고틀립","노지양","Y"
"949","B015","KOR","게으름에 대한 찬양","사회평론(1997)","","버트란드 러셀","송은경","Y"
"950","B015","KOR","한국인의 웰다잉 가이드라인","대화문화아카데미(2010)","","한국죽음학회","","Y"
"951","B015","KOR","관계의 법칙","두란노(2005)","","강준민","","Y"
"952","B015","KOR","옳고도 아름다운 당신","열림원(2008)","","박완서","","Y"
"953","B015","KOR","무소유","범우사(1999)","","법정","","Y"
"954","B015","KOR","오래된 영혼","웅진지식하우스(2011)","","강금실","","Y"
"955","B015","KOR","쉽게 읽는 개벽","대원출판","","안경전","","Y"
"956","B015","KOR","산다는 것과 사랑한다는 것","문예출판사","","윌리엄 에버렛","장경률","Y"
"957","B015","KOR","아름다운 마무리","문학의숲","","법정","","Y"
"958","B015","KOR","휴","도솔(2002)","","웨인 멀러","박윤정","Y"
"959","B015","KOR","술취한 코끼리 길들이기","이레(2008)","","아잔 브라흐마","류시화","Y"
"960","B015","KOR","말과 침묵","샘터(1982)","","법정","행","Y"
"961","B015","KOR","지성에서 영성으로","열림원(2010)","","이어령","","Y"
"962","B015","KOR","법정스님의 무소유의 행복","코리아북스(2010)","","법정","","Y"
"963","B015","KOR","땅 물 불 바람과 얼음의 여행자 WILD","알마","","제이 그리피스","전소영","Y"
"964","B015","KOR","관계를 깨뜨리지 않고 유쾌하게 이기는 법 68","나무생각(1998)","","이정숙","","Y"
"965","B015","KOR","프랑스를 생각한다","기파랑(2014)","","손우현","","Y"
"966","B015","KOR","상상력에 엔진을 달아라","나남","","임헌우","","Y"
"967","B015","KOR","창조 바이러스","랜덤하우스","","이승한","","Y"
"968","B015","KOR","생명의 정치","로도스","","강금실","","Y"
"969","B015","KOR","우리도 행복할 수 있을까","오마이북","","오연호","","Y"
"970","B015","KOR","혼창통","쌤앤파커스","","이지훈","","Y"
"971","B015","KOR","성공과 좌절","학고재","","노무현","","Y"
"972","B015","KOR","안철수의 생각","김영사","","안철수","","Y"
"973","B015","KOR","불안","이레(2005)","","알랭 드 보통","정영목","Y"
"974","B015","KOR","모금이 세상을 바꾼다","아크레(2009)","","킴 클라인","이정화","Y"
"975","B015","KOR","상상하다 비움의 문화","아지북스(2006)","","김신원 외","","Y"
"976","B015","KOR","상상하다 채움의 문화","아지북스(2006)","","이영화 외","","Y"
"977","B015","KOR","기본으로 돌아가자","중앙M&B","","배순훈","","Y"
"978","B015","KOR","가난한 이의 살림집","청어람미디어","","노익상","","Y"
"980","B015","KOR","크레이추얼 파워","중앙북스","","김지영","","Y"
"981","B015","KOR","아주 작은 차이","이프","","알리스 슈바르처","김재희","Y"
"982","B015","KOR","이 사람아 공부해","민음사(2011)","","김영희","","Y"
"983","B015","KOR","이 사람아 공부해","민음사(2011)","","김영희","","Y"
"352","B013","KOR","가슴 뭉클한 옛날 이야기","사계절(2007)","","김장성","","Y"
"50","B003","KOR","지금은 관광연출시대","백산출판사(2000)","","송정일","","Y"
"73","B004","KOR","역사속에 살다","전북도립미술관(2013)","","전북도립미술관","","Y"
"984","B015","KOR","가비오따쓰","랜덤하우스(2008)","","앨런 와이즈먼","황대권","Y"
"985","B015","KOR","바보의사 박인숙의 끝나지 않은 성장통 이야기","세창미디어(2012)","","박인숙","","Y"
"986","B015","KOR","서른 한 살 당신이 행복한 나라","미디어감어(2011)","","이미경","","Y"
"987","B015","KOR","생의 목적을 아는 아이가 큰사람으로 자란다","센추리원","","전혜성","","Y"
"988","B015","KOR","파리로 간 한복쟁이","디자인하우스(2008)","","이영희","","Y"
"990","B015","KOR","바람부는 날에도 꽃은 피네","혜화당(1994)","","김정옥","","Y"
"991","B015","KOR","내 고향은 예술이다","동연","","노은","","Y"
"992","B015","KOR","수유리 가는길","이영미술관","","김이환","","Y"
"993","B015","KOR","짝재기 양말의 연극 이야기","멘토","","박영욱","","Y"
"994","B015","KOR","개가 있는 따뜻한 골목","중학당(2000)","","김기천","","Y"
"996","B015","KOR","시인이 되고 싶은 광대","혜화당(1993)","","김정옥","","Y"
"998","B015","KOR","가짐 없는 큰 자유","학고재(2000)","","제정구","","Y"
"999","B015","KOR","아 순간들","다섯수레(1993)","","서숙","","Y"
"1000","B015","KOR","아 순간들","다섯수레(1994)","","서숙","","Y"
"1001","B015","KOR","아 순간들","다섯수레(1993)","","서숙","","Y"
"1002","B015","KOR","마음 비우기","이가서(2005)","","이청준","","Y"
"1003","B015","KOR","못가본 길이 더 아름답다","현대문학(2010)","","박완서","","Y"
"1004","B015","KOR","망각의 화원","삶과꿈(2004)","","이경성","","Y"
"1006","B015","KOR","솔직히 말해서 나는 돈이 좋다","여성신문사","","오숙희","","Y"
"1007","B015","KOR","수도사와 금강산","푸른숲","","노르베르트 베버","김영자","Y"
"1008","B015","KOR","백석시전집","창작과비평사(1987)","","백석","","Y"
"1010","B015","KOR","문학의 숲을 거닐다","샘터","","장영희","","Y"
"1011","B015","KOR","성공이 성공이 아니고 실패가 실패가 아니다","홍성사","","이영표 외","","Y"
"1012","B015","KOR","나의 인생 나의 학문","학고재","","김원용","","Y"
"1013","B015","KOR","소멸의 아름다움","나무심는사람","","필립 시먼스","김석희","Y"
"1014","B015","KOR","화나면 흥분하는 사람 화날수록 침착한 사람","청림출판(1998)","","바바라 베르크한","박희연","Y"
"1015","B015","KOR","우리 안의 식민지","고려원","","조한주 외","","Y"
"1016","B015","KOR","아담을 기다리며","녹색평론사","","마사 베크","김태언","Y"
"1017","B015","KOR","가출아빠의 사랑 스케치","지식더미","","박광무","","Y"
"1019","B015","KOR","아버지의 편지","김영사(2008)","","정민 외","","Y"
"1020","B015","KOR","공지영의 수도원 기행","김영사","","공지영","","Y"
"1021","B015","KOR","나는 나무처럼 살고싶다","중앙M&B","","우종영","","Y"
"1022","B015","KOR","잊지못할 고마운 분들","기념문집","","이석희 외","","Y"
"1023","B015","KOR","머물고 간 자리 우리 뒷모습","문이당","","이청준","","Y"
"1024","B015","KOR","줄반장 출신의 줄서기","학고재","","이문구","","Y"
"1025","B015","KOR","성공하는 사람들의 아름다운 습관 나눔","중앙M&B","","박원순","","Y"
"1026","B015","KOR","나는 가짜다","헤럴드미디어","","헤럴드경제 편집국","","Y"
"1027","B015","KOR","또또","로도스(2013)","","조은","","Y"
"1028","B015","KOR","이끼낀 여인상","교음사","","박금천","","Y"
"1029","B015","KOR","슬픔이여 안녕","성안당(2013)","","유재원","","Y"
"1030","B015","KOR","한승헌 변호사의 유머산책","범우사","","한승헌","","Y"
"1031","B015","KOR","너같이 좋은선물","위즈덤하우스(2011)","","박 불케리아","윤진호","Y"
"1032","B015","KOR","희망가게","위즈덤하우스(2011)","","신소영","","Y"
"1033","B015","KOR","서른 진실하게 아름답게","좋은생각(2006)","","정용실","","Y"
"1034","B015","KOR","엘리트보다는 사람이되어라","중앙북스(2012)","","전혜성","","Y"
"1035","B015","KOR","멈추면 비로소 보이는 것들","쌤앤파커스(2012)","","혜민","","Y"
"1036","B015","KOR","밥집","소모(2011)","","예종석","","Y"
"1037","B015","KOR","이외수 사색상자","해냄(2010)","","이외수","","Y"
"1038","B015","KOR","게으를 수 있는 용기","중앙M&B(2001)","","조양희","","Y"
"1039","B015","KOR","사라진 공간들 되살아나는 꿈들","현대문학(2014)","","윤대녕","","Y"
"1040","B015","KOR","보길도에서 온 편지","어학사(2000)","","강제윤","","Y"
"1041","B015","KOR","섬에서 보낸 백 년","샘터(2007)","","조용미","","Y"
"1042","B015","KOR","남과 여에 관한 우울하고 슬픈 결론","새로운사람들","","잉에 슈테판","이영희","Y"
"1043","B015","KOR","달리는 기차 위에 중립은 없다","이후","","하워드 진","유강은","Y"
"1044","B015","KOR","남자의 후반생","푸른숲(2003)","","모리야 히로시","양억관","Y"
"1045","B015","KOR","어느날 파리에서 편지가 왔다","낭만북스(2009)","","박재은","","Y"
"1047","B015","KOR","산에서 나를 만나다","다지리","","장갑수","","Y"
"1048","B015","KOR","지금 이 순간을 살아라","양문","","에크하르트 콜레","노혜숙 외","Y"
"1049","B016","KOR","인도","생각의 나무","","마리아 안젤릴로","이영민","Y"
"1050","B016","KOR","대한민국 숨은 여행찾기","안그라픽스(2009)","","이성원","","Y"
"1051","B017","KOR","386세대 그 빛과 그늘","문학사상사","","한상진 외","","Y"
"1052","B017","KOR","임자 올림픽 한 번 해보자!","서울특별시 시사편찬위원회(2013)","","","","Y"
"1054","B017","KOR","역사는 이상의 현실화 과정이다","창작과비평사 ","","강만길","","Y"
"333","B012","KOR","봄은 내게 겨울 외투를 권했다","연인M&B","","강희용","","Y"
"388","B013","KOR","번개처럼 학교로","주니어김영사(2008)","","에블린 르베르그","김주경","Y"
"419","B013","KOR","열두 살에 처음 만난 정치","주니어김영사(2007)","","신재일","","Y"
"22","B002","KOR","이벤트 계획 실무론","사민서각(2001)","","장영렬 외","","Y"
"36","B002","KOR","잭 웰치의 31가지 리더십 비밀","명진출판","","로버트  슬레터","이진주 외","Y"
"51","B003","KOR","국경을 넘으면 아시아가 보인다","고즈윈","","환경재단","","Y"
"1046","B015","KOR","쇠똥마을 가는 길","열림원","","이호신","","Y"
"1055","B017","KOR","사기열전(상)","을유문화사(1994)","","사마천","남만성","Y"
"1056","B017","KOR","사기열전(하)","을유문화사(1994)","","사마천","남만성","Y"
"1057","B017","KOR","역사속의 인물 엿보기","유원","","참교육기획","","Y"
"1058","B017","KOR","역사의 원전","바다출판사 ","","존 캐리","김기협","Y"
"1059","B017","KOR","내 목은 매우 짧으니 조심해서 자르게","한겨례신문사(2013)","","박원순","","Y"
"1060","B017","KOR","동양화론","일지사(1978)","","김종태","","Y"
"1061","B017","KOR","혜곡 최순우가 본 부석사 무량수전","혜곡최순우기념관(2011)","","","","Y"
"1062","B017","KOR","혜곡 최순우가 본 부석사 무량수전","혜곡최순우기념관(2011)","","","","Y"
"1063","B017","KOR","혜곡 최순우가 본 부석사 무량수전","혜곡최순우기념관(2011)","","김인회","","Y"
"1064","B017","KOR","중국 한국 미술사","학고재(2009)","","김홍남","","Y"
"1065","B017","KOR","춘곡 고희동 평전 살아서는 고전 죽어서는 역사","크로바(2015)","","최일옥","","Y"
"1066","B017","KOR","광기와 우연의 역사","자작나무","","슈테판 츠바이크","안인희","Y"
"1067","B018","KOR","영화의 연출","지호","","마이클 래비거","김진해","Y"
"1068","B018","KOR","여성영화인사전","소도","","주진숙외","","Y"
"1069","B018","KOR","영화 만들기","이론과 실천","","시드니 루엣","부수영","Y"
"1070","B018","KOR","오로라 공주","이스트필름(2005)","","이스트필름","","Y"
"1071","B018","KOR","자료로 본 한국 영화사1 (1905-1954))","열화당 미술문고(1997)","","정종화","","Y"
"1072","B018","KOR","자료로 본 한국 영화사2 (1955-1997)","열화당 미술문고(1997)","","정종화","","Y"
"1073","B018","KOR","아서밀러 희곡집","평민사","","아서밀러","김윤철","Y"
"1074","B019","KOR","즐거운 날의 상차림","정우진흥(1997)","","한정혜","","Y"
"1075","B019","KOR","엄마가 주는 숨은 비법 요리책","학원사","","김은영","","Y"
"1077","B019","KOR","남도땅 멋길 맛길","디자인하우스","","한승원 외","","Y"
"1078","B019","KOR","집에서 만드는 궁중음식","청림출판","","한복려","","Y"
"1079","B019","KOR","행복을 차려주는 여자","명진출판","","조은정","","Y"
"1080","B019","KOR","식품진단서","바다출판사(2009)","","조 슈워츠","김명남","Y"
"1082","B020","KOR","새로운 인문학을 향하여","이화여자대학교 인문과학대학(2002)","","","","Y"
"1083","B020","KOR","담론의 발견","한길사","","고명섭","","Y"
"1084","B020","KOR","황제의 새 마음(상)","이화여자대학교 출판부","","로저 펜로즈","박승수","Y"
"1085","B020","KOR","황제의 새마음(하)","이화여자대학교 출판부","","로저 펜로즈","박승수","Y"
"1087","B020","KOR","명언속명언","조갑제닷컴(2014)","","정현수","","Y"
"1088","B020","KOR","사유란 무엇인가","고려원","","마르틴 하이데거","권순홍","Y"
"1089","B020","KOR","죽음 앞에 선 인간(하)","동문선(1977)","","P.아리에스","유선자","Y"
"1090","B020","KOR","욕망이론","문예출판사","","자크라캉","민승기 외","Y"
"1091","B020","KOR","천재의 탄생","학고재","","앤드루 로빈슨","박종성","Y"
"1092","B020","KOR","신생철학","학민사","","윤노빈","","Y"
"1093","B020","KOR","사랑의 기술","문예출판사","","에리히 프롬","황문수","Y"
"1094","B020","KOR","3분 고전","작은씨앗(2010)","","박재희","","Y"
"1095","B020","KOR","현대의 위기 동양철학의 모색","예문서원","","중국철학회","","Y"
"1096","B020","KOR","지혜","동방미디어","","홍혁기","","Y"
"1097","B020","KOR","살아있는 동안 꼭 해야 할 49가지","위즈덤하우스","","탄줘잉","김명은","Y"
"1098","B020","KOR","사랑의 의미","글힘","","카렌캐시","장지연","Y"
"1099","B020","KOR","미셸 푸코","살림(2004)","","양운덕","","Y"
"1100","B020","KOR","문화란 무엇인가","시공사","","이브 미쇼 외","강주헌","Y"
"1101","B020","KOR","소비의 사회","문예출판사","","장 보드리야르","이상률","Y"
"1102","B020","KOR","군주론","돋을새김","","니콜로 마키아벨리","권혁","Y"
"1103","B020","KOR","문화가 중요하다","김영사","","새뮤얼P 외","이종인","Y"
"1104","B020","KOR","제3의 길","생각의 나무","","앤서니 기든스","한상진 외","Y"
"1105","B020","KOR","죽음에 이르는 병","종로서적","","키르케고르","임춘갑","Y"
"1106","B020","KOR","제2의 성(상)","을유문화사(1992)","","시몬느 드 보부아르","조흥식","Y"
"1107","B020","KOR","제2의 성(하)","을유문화사(1992)","","시몬느 드 보부아르","조흥식","Y"
"1109","B020","KOR","아름다운 가짜 대중문화와 센티멘털리즘","책세상","","김혜련","","Y"
"1110","B020","KOR","한국의 정체성","책세상","","탁석산","","Y"
"1111","B020","KOR","어린이 이야기 그 거세된 꿈","책세상","","최기숙","","Y"
"1112","B020","KOR","파충류처럼 냉정하고 포유류처럼 긍정하라","홍익출판사","","B.조셉화이트","김정한","Y"
"353","B013","KOR","격몽요결","청소년윤리연구회(2002)","","이창건 엮음","","Y"
"378","B013","KOR","돌도끼에서 우리별 3호까지","아이세움(2006)","","전상운","","Y"
"409","B013","KOR","아기가 되어 버린 할아버지","기댄돌","","린다 스카코","김양미","Y"
"429","B013","KOR","자유의 길","낮은산(2007)","","줄리어스 레스터","김중철","Y"
"1113","B020","KOR","나무의 신화","이학사","","자크 브로스","주향은","Y"
"1114","B020","KOR","회상 꿈 그리고 사상","집문당(2003)","","아니엘라 야훼","이부영","Y"
"1115","B020","KOR","우울한 현대인에게 주는 번즈 박사의 충고","문예출판사(1991)","","데이비드 번즈","박승룡","Y"
"1117","B020","KOR","나를 위한 글쓰기","경희대학교 출판문화원","","글쓰기 교재 편찬위원회","","Y"
"1118","B020","KOR","거대한 고독","현대문학","","프레데릭 파작","이재룡","Y"
"1121","B020","KOR","창조자들2","민음사","","대니얼 부어스틴","이민아 외","Y"
"1122","B020","KOR","한국인의 솜씨","다할미디어 (2001)","","손영학","","Y"
"1123","B020","KOR","컬처코드","웅진씽크빅(2007)","","클로테르 라파이유","김상철 김정수","Y"
"1124","B020","KOR","시각콘텐츠 들여다보기","다할미디어 (2006)","","조관연","","Y"
"1125","B021","KOR","캐서린 그레이엄 자서전","중앙일보","","캐서린 그레이엄","","Y"
"1126","B021","KOR","오늘이 내 삶의 클라이맥스다","김영사 ","","그레이스 리","","Y"
"1127","B021","KOR","하늘 높이 춤추며","한길출판문화","","장광열","","Y"
"1128","B021","KOR","월트 디즈니","우리문학사","","마크 엘리어트","원재길","Y"
"1129","B021","KOR","작은 나무부터 올라가라","푸른역사(2008)","","신상배","","Y"
"1130","B021","KOR","나의 인생 나의 학문","학고재(1996)","","김원용","","Y"
"1131","B021","KOR","앙드레 말로 소설로 쓴 평전","이룸","","레미 코페르","장진영","Y"
"1132","B021","KOR","스벤 헤딘 자서전 마지막 탐험가","웅진씽크빅","","스벤 헤딘","윤준 외","Y"
"1133","B022","KOR","못생긴 나무가 산을 지킨다","청아출판사","","고도원 엮음","","Y"
"1134","B022","KOR","한국의 名木","경향신문사출판제작국(1993)","","이봉섭","","Y"
"1135","B022","KOR","한국의 야생화","평화출판사","","송기엽","","Y"
"1136","B022","KOR","계절별로 보는 한국의 산야초","넥서스북스","","장준근","","Y"
"1137","B022","KOR","우리나라 특산식물","한국식물사진가회","","현진오","","Y"
"1138","B022","KOR","희망의 숲","이채","","크리스티안 퀴헬리","탁광일","Y"
"1139","B022","KOR","세상에서 가장 아름다운 수목원","김영사","","임준수","","Y"
"1140","B022","KOR","도시농부 올빼미의 텃밭 가이드","시골생활","","유다경","","Y"
"431","B013","KOR","장애를 딛고 선 천재 화가 김기창","나무숲(2004)","","심경자","","Y"
"432","B013","KOR","재치가 배꼽 잡는 이야기","사계절(2007)","","조호상","","Y"
"433","B013","KOR","저학년 위인전 방정환","예림당(2004)","","차원재","","Y"
"434","B013","KOR","전쟁의 역사1","가교출판(2005)","","신정연","","Y"
"435","B013","KOR","전통 사회논술 우리 옛 법","우리두리","","우리기획","","Y"
"436","B013","KOR","주강현의 우리 문화","대한교과서(2007)","","주강현","","Y"
"437","B013","KOR","지도로 만나는 고대 세계사","대교출판(2007)","","사이먼 애덤스","이충호","Y"
"438","B013","KOR","책도령은 왜 지옥에 갔을까?","예림당(2007)","","김율희","","Y"
"439","B013","KOR","책상 위의 태양","아이세움(2003)","","미하일 일리인","박수현","Y"
"440","B013","KOR","천재화가 이중섭과 아이들","솔출판사(2007)","","강원희","","Y"
"441","B013","KOR","초등 사회 개념 짱","기탄교육(2013)","","김용만","","Y"
"442","B013","KOR","초등 한국사 생생 교과서","위즈덤하우스(2007)","","이정범","","Y"
"443","B013","KOR","초등학생이 꼭 알아야 할 우리 민속 이야기","예림당(2002)","","우리누리","","Y"
"444","B013","KOR","최민규 대한민국 보통 3학년","담터미디어(2007)","","정성란","","Y"
"445","B013","KOR","코끼리 코는 왜 길까?","푸른나무(2006)","","보물섬","","Y"
"446","B013","KOR","콩알 하나에 무엇이 들었을까?","봄나무(2005)","","이현주 외","","Y"
"448","B013","KOR","탈레스 박사와 미로 게임","김영사(2006)","","김성수","","Y"
"450","B013","KOR","트리갭의 샘물","대교출판(2007)","","마탈리 배비트","최순희","Y"
"451","B013","KOR","파리에 간 샬롯","웅진닷컴(2004)","","존 멕페일 나이트","오숙은","Y"
"452","B013","KOR","파퍼씨의 12마리 펭귄","문학동네(2007)","","리처드 앳워터 외","정미영","Y"
"453","B013","KOR","풀과 벌레를 즐겨 그린 화가 신사임당","나무숲(2004)","","조용진","","Y"
"454","B013","KOR","프리즐 선생님의 신기한 역사 여행","비룡소(2004)","","조애너 콜","장석봉","Y"
"455","B013","KOR","한눈에 쏘옥! 검정고무신 한국사","형설아이","","도래미","","Y"
"456","B013","KOR","해바라기 도둑","함께","","권이순 외","","Y"
"457","B013","KOR","해인사에 가자","주니어화니북스(2005)","","김경화","","Y"
"458","B013","KOR","호기심 왕국","문공사(1998)","","나이테","","Y"
"459","B013","KOR","표구된 휴지","삼성출판사(2015)","","이범선 외","","Y"
"460","B013","KOR","홍길동전","삼성출판사(2015)","","허균 외","","Y"
"461","B013","KOR","소나기","삼성출판사(2015)","","황순원 외","","Y"
"463","B013","KOR","수난 2대","삼성출판사(2015)","","허근찬 외","","Y"
"464","B013","KOR","영수증","삼성출판사(2015)","","박태원 외","","Y"
"465","B013","KOR","벼 알 삼 형제","삼성출판사(2015)","","주요섭 외","","Y"
"466","B013","KOR","세 발 달린 황소","삼성출판사(2015)","","정수민 외","","Y"
"468","B013","KOR","무지개","삼성출판사(2015)","","김동인 외","","Y"
"365","B013","KOR","꿀벌 마야의 모험","비룡소(2007)","","발데마르 본젤스","박민수","Y"
"16","B001","KOR","유전자 영양학","교학사 (2004)","","松永政司 宇住晃治","이홍재","Y"
"33","B002","KOR","성공한 기업은 1원도 아낀다","마젤란(2005)","","게리 롱","홍수원","Y"
"467","B013","KOR","양반전","삼성출판사(2015)","","박지원 외","","Y"
"469","B013","KOR","박씨전","삼성출판사(2015)","","","","Y"
"470","B013","KOR","사냥","삼성출판사(2015)","","이효석 외","","Y"
"471","B013","KOR","황소와 도깨비","삼성출판사(2015)","","이상 외","","Y"
"472","B013","KOR","꿈을 찍는 사진관","삼성출판사(2015)","","강소천 외","","Y"
"473","B013","KOR","만년 샤쓰","삼성출판사(2015)","","방정환 외","","Y"
"475","B013","KOR","전쟁과 다람쥐","삼성출판사(2015)","","이동하 외","","Y"
"476","B013","KOR","이상한 선생님","삼성출판사(2015)","","채만식 외","","Y"
"477","B013","KOR","눈뜨는 시절","삼성출판사(2015)","","이원수 외","","Y"
"479","B013","KOR","나비를 잡는 아버지","삼성출판사(2015)","","현덕 외","","Y"
"480","B013","KOR","아버지와 아들","삼성출판사(2015)","","김동리 외","","Y"
"482","B013","KOR","오마니 별","삼성출판사(2015)","","김원일 외","","Y"
"483","B013","KOR","표구된 휴지","삼성출판사(2015)","","이범선 외","","Y"
"484","B013","KOR","홍길동전","삼성출판사(2015)","","허균 외","","Y"
"485","B013","KOR","소나기","삼성출판사(2015)","","황순원 외","","Y"
"487","B013","KOR","수난 2대","삼성출판사(2015)","","허근찬 외","","Y"
"488","B013","KOR","영수증","삼성출판사(2015)","","박태원 외","","Y"
"489","B013","KOR","벼 알 삼 형제","삼성출판사(2015)","","주요섭 외","","Y"
"490","B013","KOR","세 발 달린 황소","삼성출판사(2015)","","정수민 외","","Y"
"491","B013","KOR","양반전","삼성출판사(2015)","","박지원 외","","Y"
"492","B013","KOR","무지개","삼성출판사(2015)","","김동인 외","","Y"
"493","B013","KOR","박씨전","삼성출판사(2015)","","","","Y"
"494","B013","KOR","사냥","삼성출판사(2015)","","이효석 외","","Y"
"495","B013","KOR","황소와 도깨비","삼성출판사(2015)","","이상 외","","Y"
"496","B013","KOR","꿈을 찍는 사진관","삼성출판사(2015)","","강소천 외","","Y"
"497","B013","KOR","만년 샤쓰","삼성출판사(2015)","","방정환 외","","Y"
"499","B013","KOR","전쟁과 다람쥐","삼성출판사(2015)","","이동하 외","","Y"
"502","B013","KOR","돌다리","삼성출판사(2015)","","이태준 외","","Y"
"503","B013","KOR","나비를 잡는 아버지","삼성출판사(2015)","","현덕 외","","Y"
"504","B013","KOR","아버지와 아들","삼성출판사(2015)","","김동리 외","","Y"
"505","B013","KOR","누나 별","삼성출판사(2015)","","오영수 외","","Y"
"506","B013","KOR","오마니 별","삼성출판사(2015)","","김원일 외","","Y"
"507","B013","KOR","표구된 휴지","삼성출판사(2015)","","이범선 외","","Y"
"508","B013","KOR","홍길동전","삼성출판사(2015)","","허균 외","","Y"
"509","B013","KOR","소나기","삼성출판사(2015)","","황순원 외","","Y"
"510","B013","KOR","동백꽃","삼성출판사(2015)","","김유정 외","","Y"
"511","B013","KOR","수난 2대","삼성출판사(2015)","","허근찬 외","","Y"
"512","B013","KOR","영수증","삼성출판사(2015)","","박태원 외","","Y"
"513","B013","KOR","벼 알 삼 형제","삼성출판사(2015)","","주요섭 외","","Y"
"514","B013","KOR","세 발 달린 황소","삼성출판사(2015)","","정수민 외","","Y"
"515","B013","KOR","양반전","삼성출판사(2015)","","박지원 외","","Y"
"516","B013","KOR","무지개","삼성출판사(2015)","","김동인 외","","Y"
"518","B013","KOR","사냥","삼성출판사(2015)","","이효석 외","","Y"
"519","B013","KOR","황소와 도깨비","삼성출판사(2015)","","이상 외","","Y"
"520","B013","KOR","꿈을 찍는 사진관","삼성출판사(2015)","","강소천 외","","Y"
"521","B013","KOR","만년 샤쓰","삼성출판사(2015)","","방정환 외","","Y"
"522","B013","KOR","운영전","삼성출판사(2015)","","","","Y"
"523","B013","KOR","전쟁과 다람쥐","삼성출판사(2015)","","이동하 외","","Y"
"524","B013","KOR","이상한 선생님","삼성출판사(2015)","","채만식 외","","Y"
"525","B013","KOR","눈뜨는 시절","삼성출판사(2015)","","이원수 외","","Y"
"527","B013","KOR","나비를 잡는 아버지","삼성출판사(2015)","","현덕 외","","Y"
"528","B013","KOR","아버지와 아들","삼성출판사(2015)","","김동리 외","","Y"
"529","B013","KOR","누나 별","삼성출판사(2015)","","오영수 외","","Y"
"530","B013","KOR","오마니 별","삼성출판사(2015)","","김원일 외","","Y"
"531","B013","KOR","80일간의 세계일주","삼성출판사(2015)","","쥘 베른","이영옥","Y"
"532","B013","KOR","어린 왕자","삼성출판사(2015)","","생텍쥐베리","정진숙","Y"
"533","B013","KOR","장 발장","삼성출판사(2015)","","빅토르 위고","신윤덕","Y"
"535","B013","KOR","셰익스피어 이야기","삼성출판사(2015)","","윌리엄 셰익스피어","안희웅","Y"
"536","B013","KOR","작은 아씨들","삼성출판사(2015)","","루이자 메이 올컷","한상남","Y"
"537","B013","KOR","탈무드","삼성출판사(2015)","","","한상남","Y"
"538","B013","KOR","파브르 곤충기","삼성출판사(2015)","","앙르 파브르","임형요","Y"
"539","B013","KOR","아라비안나이트","삼성출판사(2015)","","","권영미","Y"
"540","B013","KOR","15소년 표류기","삼성출판사(2015)","","쥘 베른","조한기","Y"
"541","B013","KOR","안네의 일기","삼성출판사(2015)","","안네 프랑크","백승자","Y"
"542","B013","KOR","로빈슨 크루소","삼성출판사(2015)","","대니얼 디포","신윤덕","Y"
"544","B013","KOR","지킬 박사와 하이드","삼성출판사(2015)","","로버트 루이스 스티븐슨","한상남","Y"
"390","B013","KOR","불교 이야기2","창작과비평사(2003)","","김용덕","","Y"
"420","B013","KOR","오천년 우리 땅 이름 이야기 동네 방네","대교출판(2006)","","김원석","","Y"
"18","B002","KOR","21세기 지역 이벤트 전략","커뮤니케이션북스","","이각규","","Y"
"29","B002","KOR","대한민국 희망보고서 유한킴벌리","거름(2004)","","정혜원","","Y"
"34","B002","KOR","변화를 선택한 리더들","기획예산처","","","","Y"
"74","B004","KOR","초상화의 비밀","국립중앙박물관(2011)","","국립중앙박물관","","Y"
"75","B004","KOR","REIKO IMOTO","REIKO IMOTO","","","","Y"
"545","B013","KOR","키다리 아저씨","삼성출판사(2015)","","진 웹스터","한상남","Y"
"546","B013","KOR","돈키호테","삼성출판사(2015)","","세르반테스 사아베드라","조항록","Y"
"548","B013","KOR","보물섬","삼성출판사(2015)","","로버트 루이스 스티븐슨","임형요","Y"
"549","B013","KOR","해저 2만 리","삼성출판사(2015)","","쥘 베른","정제광","Y"
"550","B013","KOR","세계 우수 단편 모음","삼성출판사(2015)","","모파상 외","권영미","Y"
"551","B013","KOR","허클베리 핀의 모험","삼성출판사(2015)","","마크 트웨인","한상남","Y"
"552","B013","KOR","비밀의 화원","삼성출판사(2015)","","프렌시스 엘리자 버넷","정진숙","Y"
"553","B013","KOR","톰 소여의 모험","삼성출판사(2015)","","마크 트웨인","최재숙","Y"
"554","B013","KOR","테스","삼성출판사(2015)","","토머스 하디","백승자","Y"
"555","B013","KOR","그리스 로마 신화","삼성출판사(2015)","","","권영미","Y"
"556","B013","KOR","시턴 동물기","삼성출판사(2015)","","어니스트 에번 톰프슨 시턴","선안나","Y"
"557","B013","KOR","세계의 명시","삼성출판사(2015)","","바이런 외","","Y"
"558","B013","KOR","젊은 베르테르의 슬픔","삼성출판사(2015)","","요한 볼프강 괴테","정진숙","Y"
"559","B013","KOR","제인 에어","삼성출판사(2015)","","샬럿 브론테","한상남","Y"
"560","B013","KOR","폭풍의 언덕","삼성출판사(2015)","","에밀리 브론테","권영미","Y"
"561","B013","KOR","전쟁과 평화","삼성출판사(2015)","","니콜라예비치 톨스토이","이혜경","Y"
"562","B013","KOR","동물 농장","삼성출판사(2015)","","조지오웰","이영옥","Y"
"563","B013","KOR","걸리버 여행기","삼성출판사(2015)","","조너선 스위프트","신윤덕","Y"
"564","B013","KOR","사람은 무엇으로 사는가","삼성출판사(2015)","","니콜라예비치 톨스토이","박형규","Y"
"565","B013","KOR","부활","삼성출판사(2015)","","니콜라예비치 톨스토이","이동렬","Y"
"567","B013","KOR","안나 카레니나","삼성출판사(2015)","","니콜라예비치 톨스토이","서인영","Y"
"568","B013","KOR","바람과 함꼐 사라다","삼성출판사(2015)","","마거릿 머널린 미첼","이경혜","Y"
"569","B013","KOR","데미안","삼성출판사(2015)","","헤르만 헤세","이상교","Y"
"570","B013","KOR","올리버 트위스트","삼성출판사(2015)","","찰스 디킨스","한상숙","Y"
"571","B013","KOR","몽테크리스토 백작","삼성출판사(2015)","","알렉상드르 뒤마","한상숙","Y"
"572","B013","KOR","오 헨리 단편선","삼성출판사(2015)","","오 헨리","권영미","Y"
"573","B013","KOR","주홍 글씨","삼성출판사(2015)","","너대니얼 호손","김현화","Y"
"574","B013","KOR","카라마조프의 형제들","삼성출판사(2015)","","도스토옙스키","안희웅","Y"
"575","B013","KOR","모비 딕","삼성출판사(2015)","","허너 멜빌","한상남","Y"
"576","B013","KOR","좁은 문","삼성출판사(2015)","","앙드레 지드","고수산나","Y"
"577","B013","KOR","삼국지(상)","삼성출판사(2015)","","나관중","고영직","Y"
"578","B013","KOR","삼국지(하)","삼성출판사(2015)","","나관중","고영직","Y"
"579","B013","KOR","80일간의 세계일주","삼성출판사(2015)","","쥘 베른","이영옥","Y"
"580","B013","KOR","어린 왕자","삼성출판사(2015)","","생텍쥐베리","정진숙","Y"
"581","B013","KOR","장 발장","삼성출판사(2015)","","빅토르 위고","신윤덕","Y"
"583","B013","KOR","셰익스피어 이야기","삼성출판사(2015)","","윌리엄 셰익스피어","안희웅","Y"
"584","B013","KOR","작은 아씨들","삼성출판사(2015)","","루이자 메이 올컷","한상남","Y"
"586","B013","KOR","파브르 곤충기","삼성출판사(2015)","","앙르 파브르","임형요","Y"
"587","B013","KOR","아라비안나이트","삼성출판사(2015)","","","권영미","Y"
"588","B013","KOR","15소년 표류기","삼성출판사(2015)","","쥘 베른","조한기","Y"
"589","B013","KOR","안네의 일기","삼성출판사(2015)","","안네 프랑크","백승자","Y"
"590","B013","KOR","로빈슨 크루소","삼성출판사(2015)","","대니얼 디포","신윤덕","Y"
"591","B013","KOR","죄와 벌","삼성출판사(2015)","","도스토옙스키","안희웅","Y"
"592","B013","KOR","지킬 박사와 하이드","삼성출판사(2015)","","로버트 루이스 스티븐슨","한상남","Y"
"593","B013","KOR","키다리 아저씨","삼성출판사(2015)","","진 웹스터","한상남","Y"
"594","B013","KOR","돈키호테","삼성출판사(2015)","","세르반테스 사아베드라","조항록","Y"
"595","B013","KOR","노인과 바다","삼성출판사(2015)","","헤밍웨이","강정규","Y"
"596","B013","KOR","보물섬","삼성출판사(2015)","","로버트 루이스 스티븐슨","임형요","Y"
"597","B013","KOR","해저 2만 리","삼성출판사(2015)","","쥘 베른","정제광","Y"
"598","B013","KOR","세계 우수 단편 모음","삼성출판사(2015)","","모파상 외","권영미","Y"
"599","B013","KOR","허클베리 핀의 모험","삼성출판사(2015)","","마크 트웨인","한상남","Y"
"334","B012","KOR","장영희의 영미시산책 생일","비채","","장영희","","Y"
"354","B013","KOR","고구려를 세운 주몽","마야(2006)","","임동주","","Y"
"30","B002","KOR","우리에겐 위기극복의 유전자가 있습니다","여백(2010)","","배순훈","","Y"
"37","B002","KOR","주식회사 창업과 경영","미래와경영","","미래와 경영 연구소","","Y"
"600","B013","KOR","비밀의 화원","삼성출판사(2015)","","프렌시스 엘리자 버넷","정진숙","Y"
"601","B013","KOR","톰 소여의 모험","삼성출판사(2015)","","마크 트웨인","최재숙","Y"
"602","B013","KOR","테스","삼성출판사(2015)","","토머스 하디","백승자","Y"
"603","B013","KOR","그리스 로마 신화","삼성출판사(2015)","","","권영미","Y"
"604","B013","KOR","시턴 동물기","삼성출판사(2015)","","어니스트 에번 톰프슨 시턴","선안나","Y"
"605","B013","KOR","세계의 명시","삼성출판사(2015)","","바이런 외","","Y"
"606","B013","KOR","젊은 베르테르의 슬픔","삼성출판사(2015)","","요한 볼프강 괴테","정진숙","Y"
"607","B013","KOR","제인 에어","삼성출판사(2015)","","샬럿 브론테","한상남","Y"
"608","B013","KOR","폭풍의 언덕","삼성출판사(2015)","","에밀리 브론테","권영미","Y"
"609","B013","KOR","전쟁과 평화","삼성출판사(2015)","","니콜라예비치 톨스토이","이혜경","Y"
"610","B013","KOR","동물 농장","삼성출판사(2015)","","조지오웰","이영옥","Y"
"611","B013","KOR","걸리버 여행기","삼성출판사(2015)","","조너선 스위프트","신윤덕","Y"
"612","B013","KOR","사람은 무엇으로 사는가","삼성출판사(2015)","","니콜라예비치 톨스토이","박형규","Y"
"613","B013","KOR","부활","삼성출판사(2015)","","니콜라예비치 톨스토이","이동렬","Y"
"614","B013","KOR","변신","삼성출판사(2015)","","프린츠 카프카","강정규","Y"
"615","B013","KOR","안나 카레니나","삼성출판사(2015)","","니콜라예비치 톨스토이","서인영","Y"
"616","B013","KOR","바람과 함꼐 사라다","삼성출판사(2015)","","마거릿 머널린 미첼","이경혜","Y"
"617","B013","KOR","데미안","삼성출판사(2015)","","헤르만 헤세","이상교","Y"
"619","B013","KOR","몽테크리스토 백작","삼성출판사(2015)","","알렉상드르 뒤마","한상숙","Y"
"620","B013","KOR","오 헨리 단편선","삼성출판사(2015)","","오 헨리","권영미","Y"
"621","B013","KOR","주홍 글씨","삼성출판사(2015)","","너대니얼 호손","김현화","Y"
"622","B013","KOR","카라마조프의 형제들","삼성출판사(2015)","","도스토옙스키","안희웅","Y"
"623","B013","KOR","모비 딕","삼성출판사(2015)","","허너 멜빌","한상남","Y"
"624","B013","KOR","좁은 문","삼성출판사(2015)","","앙드레 지드","고수산나","Y"
"625","B013","KOR","삼국지(상)","삼성출판사(2015)","","나관중","고영직","Y"
"626","B013","KOR","삼국지(하)","삼성출판사(2015)","","나관중","고영직","Y"
"627","B013","KOR","80일간의 세계일주","삼성출판사(2015)","","쥘 베른","이영옥","Y"
"628","B013","KOR","어린 왕자","삼성출판사(2015)","","생텍쥐베리","정진숙","Y"
"629","B013","KOR","장 발장","삼성출판사(2015)","","빅토르 위고","신윤덕","Y"
"630","B013","KOR","홍당무","삼성출판사(2015)","","쥘 르나르","강정규","Y"
"631","B013","KOR","셰익스피어 이야기","삼성출판사(2015)","","윌리엄 셰익스피어","안희웅","Y"
"632","B013","KOR","작은 아씨들","삼성출판사(2015)","","루이자 메이 올컷","한상남","Y"
"634","B013","KOR","파브르 곤충기","삼성출판사(2015)","","앙르 파브르","임형요","Y"
"635","B013","KOR","아라비안나이트","삼성출판사(2015)","","","권영미","Y"
"636","B013","KOR","15소년 표류기","삼성출판사(2015)","","쥘 베른","조한기","Y"
"637","B013","KOR","안네의 일기","삼성출판사(2015)","","안네 프랑크","백승자","Y"
"638","B013","KOR","로빈슨 크루소","삼성출판사(2015)","","대니얼 디포","신윤덕","Y"
"639","B013","KOR","죄와 벌","삼성출판사(2015)","","도스토옙스키","안희웅","Y"
"640","B013","KOR","지킬 박사와 하이드","삼성출판사(2015)","","로버트 루이스 스티븐슨","한상남","Y"
"641","B013","KOR","키다리 아저씨","삼성출판사(2015)","","진 웹스터","한상남","Y"
"642","B013","KOR","돈키호테","삼성출판사(2015)","","세르반테스 사아베드라","조항록","Y"
"643","B013","KOR","노인과 바다","삼성출판사(2015)","","헤밍웨이","강정규","Y"
"644","B013","KOR","보물섬","삼성출판사(2015)","","로버트 루이스 스티븐슨","임형요","Y"
"645","B013","KOR","해저 2만 리","삼성출판사(2015)","","쥘 베른","정제광","Y"
"646","B013","KOR","세계 우수 단편 모음","삼성출판사(2015)","","모파상 외","권영미","Y"
"647","B013","KOR","허클베리 핀의 모험","삼성출판사(2015)","","마크 트웨인","한상남","Y"
"648","B013","KOR","비밀의 화원","삼성출판사(2015)","","프렌시스 엘리자 버넷","정진숙","Y"
"649","B013","KOR","톰 소여의 모험","삼성출판사(2015)","","마크 트웨인","최재숙","Y"
"650","B013","KOR","테스","삼성출판사(2015)","","토머스 하디","백승자","Y"
"651","B013","KOR","그리스 로마 신화","삼성출판사(2015)","","","권영미","Y"
"652","B013","KOR","시턴 동물기","삼성출판사(2015)","","어니스트 에번 톰프슨 시턴","선안나","Y"
"653","B013","KOR","세계의 명시","삼성출판사(2015)","","바이런 외","","Y"
"654","B013","KOR","젊은 베르테르의 슬픔","삼성출판사(2015)","","요한 볼프강 괴테","정진숙","Y"
"655","B013","KOR","제인 에어","삼성출판사(2015)","","샬럿 브론테","한상남","Y"
"656","B013","KOR","폭풍의 언덕","삼성출판사(2015)","","에밀리 브론테","권영미","Y"
"657","B013","KOR","전쟁과 평화","삼성출판사(2015)","","니콜라예비치 톨스토이","이혜경","Y"
"658","B013","KOR","동물 농장","삼성출판사(2015)","","조지오웰","이영옥","Y"
"327","B012","KOR","그 나라 하늘빛","문학과지성사","","마종기","","Y"
"355","B013","KOR","고대 문명이 숨쉬는 중동신화","현문미디어(2006)","","이경덕","","Y"
"410","B013","KOR","아기장수 우투리","보리(2005)","","서정오","","Y"
"38","B002","KOR","주식회사 설립 실무가이드","바른지식(2000)","","이선행","","Y"
"52","B003","KOR","아시아의 희망을 발견하다","환경재단 도요새(2007)","","환경재단","","Y"
"56","B003","KOR","서울에서 가까운 40명산","산악문화","","월간사람과산편집부","","Y"
"57","B003","KOR","섬진강변의 문화회랑","조선일보사(2000)","","신영훈","","Y"
"59","B003","KOR","남이잡상","나미북스(2007)","","강우현","","Y"
"61","B004","KOR","한국의 박물관 미술관 강원 대전 충남 충북","사단법인 한국박물관협회(2006)","","김종규","","Y"
"62","B004","KOR","광주 전남 전북 제주","국립민속박물관(2014)","","","","Y"
"63","B004","KOR","경남 경북 대구 부산 울산","국립민속박물관(2014)","","","","Y"
"65","B004","KOR","서울","국립민속박물관(2014)","","","","Y"
"67","B004","KOR","조선을 생각한다","학고재(1996)","","야나기 무네요시","심우성","Y"
"68","B004","KOR","Atta Kim: ON-AIR","예담(2008)","","김아타","","Y"
"76","B004","KOR","김종학 컬렉션 창작의 열쇠","서울시립미술관(2015)","","김홍희","","Y"
"77","B004","KOR","전시=기획x디자인","국립민속박물관(2013)","","","","Y"
"659","B013","KOR","걸리버 여행기","삼성출판사(2015)","","조너선 스위프트","신윤덕","Y"
"660","B013","KOR","사람은 무엇으로 사는가","삼성출판사(2015)","","니콜라예비치 톨스토이","박형규","Y"
"662","B013","KOR","변신","삼성출판사(2015)","","프린츠 카프카","강정규","Y"
"664","B013","KOR","바람과 함꼐 사라다","삼성출판사(2015)","","마거릿 머널린 미첼","이경혜","Y"
"665","B013","KOR","데미안","삼성출판사(2015)","","헤르만 헤세","이상교","Y"
"666","B013","KOR","올리버 트위스트","삼성출판사(2015)","","찰스 디킨스","한상숙","Y"
"667","B013","KOR","몽테크리스토 백작","삼성출판사(2015)","","알렉상드르 뒤마","한상숙","Y"
"672","B013","KOR","좁은 문","삼성출판사(2015)","","앙드레 지드","고수산나","Y"
"675","B013","KOR","만화 한국사1 선사시대","삼성출판사(2015)","","이이화","","Y"
"676","B013","KOR","만화 한국사2 삼국시대","삼성출판사(2015)","","이이화","","Y"
"677","B013","KOR","만화 한국사3 삼국시대후기","삼성출판사(2015)","","이이화","","Y"
"678","B013","KOR","만화 한국사4 남북국시대","삼성출판사(2015)","","이이화","","Y"
"679","B013","KOR","만화 한국사5 고려시대","삼성출판사(2015)","","이이화","","Y"
"685","B013","KOR","만화 한국사2 삼국시대","삼성출판사(2015)","","이이화","","Y"
"687","B013","KOR","만화 한국사4 남북국시대","삼성출판사(2015)","","이이화","","Y"
"689","B013","KOR","만화 한국사6 조선시대전기","삼성출판사(2015)","","이이화","","Y"
"690","B013","KOR","만화 한국사7 조선시대중기","삼성출판사(2015)","","이이화","","Y"
"691","B013","KOR","만화 한국사8 조선시대후기","삼성출판사(2015)","","이이화","","Y"
"692","B013","KOR","만화 한국사9 일제시대와광복","삼성출판사(2015)","","이이화","","Y"
"698","B013","KOR","만화 한국사6 조선시대전기","삼성출판사(2015)","","이이화","","Y"
"712","B013","KOR","우주","삼성출판사(2014)","","","","Y"
"713","B013","KOR","우주탐사단","삼성출판사(2014)","","","","Y"
"714","B013","KOR","지구탐험","삼성출판사(2014)","","","","Y"
"715","B013","KOR","지구역사","삼성출판사(2014)","","","","Y"
"716","B013","KOR","날씨","삼성출판사(2014)","","","","Y"
"717","B013","KOR","세계의 건출물","삼성출판사(2014)","","","","Y"
"727","B013","KOR","영화과학","삼성출판사(2014)","","","","Y"
"735","B013","KOR","지구역사","삼성출판사(2014)","","","","Y"
"736","B013","KOR","날씨","삼성출판사(2014)","","","","Y"
"737","B013","KOR","세계의 건출물","삼성출판사(2014)","","","","Y"
"763","B013","KOR","STRAY SHEEP","일본서적","","","","Y"
"764","B013","KOR","달님 안녕","한림출판사","","하야시 아키코","이영준","Y"
"773","B013","KOR","귀여운 곤충 친구들/공벌레 동글이","한국루벤스","","다카이에 히로시게","윤태중","Y"
"1154","B023","KOR","동북아시아 공동의 집","일조각","","와다 하루키","이원덕","Y"
"1158","B023","KOR","부패추방 어떻게 하나","나남출판","","이은영 외","","Y"
"421","B013","KOR","우리 역사를 움직인 맞수들2","가나출판사(2008)","","설혜진","","Y"
"422","B013","KOR","우리나라 옛이야기 꿀떡해 버린 꿀떡","창비(2007)","","손춘익 엮음","","Y"
"424","B013","KOR","웃음의 총과 이현주 동화나라","웅진주니어(2008)","","이현주  ","","Y"
"425","B013","KOR","유적지에 간 아이들","세손교육(2004)","","그루터기 엮음","","Y"
"426","B013","KOR","율리우스 카이사르","초록아이(2008)","","엘렌갈포드","강성희","Y"
"430","B013","KOR","작곡가들과 떠나는 클래식 음악 여행","시공주니어(2008)","","크리스티네 멜리히","김서정","Y"
"1","B001","KOR","슬로 라이프","디자인하우스(2005)","","쓰지 신이치","김향","Y"
"2","B001","KOR","지허스님의 차","김영사","","지허스님","","Y"
"3","B001","KOR","활명수 100년 성장의 비밀","리더스북","","예종석","","Y"
"4","B001","KOR","헝그리 플래닛","윌북(2008)","","피터 멘젤 외","김승진 외","Y"
"5","B001","KOR","호두껍질 속의 우주","까치(1996)","","스티븐 호킹","김동광","Y"
"6","B001","KOR","DNA 생명의 비밀","까치(1996)","","제임스D왓슨","이한음","Y"
"8","B001","KOR","나는 침 뜸으로 승부한다","정통침뜸연구소","","김남수","","Y"
"9","B001","KOR","침뜸 이야기","정통침뜸연구소","","김남수","","Y"
"10","B001","KOR","앞쪽형 인간","허원미디어","","나덕렬","","Y"
"11","B001","KOR","건강 장수의 비결","성림","","이상택","","Y"
"12","B001","KOR","오래 살고 싶으신가요?","연합북스(2012)","","송용상 외","","Y"
"15","B001","KOR","몸이 좋아하는 건강여행","국일출판사(2004)","","이해숙","","Y"
"19","B002","KOR","주식회사 대한민국 이제 다시 시작이다","원앤원북스","","삼정KPMG경제연구원","","Y"
"20","B002","KOR","스타벅스 커피 한잔에 담긴 성공신화","김영사(1999)","","하워드 슐츠 외","홍순명","Y"
"23","B002","KOR","소비문화 이데올로기 분석","커뮤니케이션북스(1999)","","김응숙","","Y"
"24","B002","KOR","기업 문화 커뮤니케이션","커뮤니케이션북스(2000)","","박기순","","Y"
"25","B002","KOR","창조경영 시대의 문화마케팅","한국메세나협의회","","","","Y"
"32","B002","KOR","크게보고 멀리보라","김영사","","야마자키 가쓰히코","윤성원","Y"
"39","B002","KOR","신 이벤트 마케팅 전략","커뮤니케이션북스(1998)","","김희진","","Y"
"40","B002","KOR","미래형 캠페인","커먼북스(2003)","","신강균","김홍남","Y"
"42","B002","KOR","나미야 잡화점의 기적","현대문학","","히가시노 게이고","양윤옥","Y"
"44","B002","KOR","세상을 바꾸는 천개의 직업","문학동네","","박원순","","Y"
"45","B002","KOR","글로벌 경제의 위기와 미국","지식의날개","","로버트 루빈 외","신영섭 외","Y"
"46","B002","KOR","사막을 건너는 여섯가지 방법","김영사","","스티브 도나휴","고상숙","Y"
"54","B003","KOR","내 안의 사막 고비를 건너다","황금나침반","","라인홀트 메스너","모명숙","Y"
"60","B003","KOR","대한민국 도시여행","컬처그라퍼(2011)","","이병학","","Y"
"379","B013","KOR","동몽선습","청소년윤리연구회(2002)","","손광세 엮음","","Y"
"380","B013","KOR","둥글둥글 지구촌 종교 이야기","풀빛","","크리스티네 슐츠 라이스","임미오","Y"
"381","B013","KOR","따르릉 따르릉 비켜 나세요!","시공주니어(2008)","","한스 아우구스토 레이","이선아","Y"
"382","B013","KOR","떡볶이 따라 몸 속 구경","대교출판(2008)","","몽당연필","","Y"
"383","B013","KOR","로봇 미래의 친구","성우","","김두희","","Y"
"384","B013","KOR","머릿속을 헤엄치는 생각 물고기","꿈소담이","","최은규","","Y"
"385","B013","KOR","머릿속을 헤엄치는 지혜 물고기","꿈소담이(2000)","","최은규","","Y"
"386","B013","KOR","명화를 통해 보는 전쟁 이야기","주니어김영사(2003)","","클레르 다르쿠르","곽노경","Y"
"391","B013","KOR","사금파리 한 조각","서울문화사(2007)","","린다 수 박","","Y"
"392","B013","KOR","새로운 세계를 연 비디오 예술가 백남준","나무숲(2004)","","김홍희","","Y"
"393","B013","KOR","서울600년 이야기","산하(2007)","","김근태","","Y"
"394","B013","KOR","세계 대탐험 이야기","키다리(2005)","","사라 해리슨","김지영","Y"
"395","B013","KOR","세계 자연유산 답사","사계절(2007)","","허용선","","Y"
"396","B013","KOR","세상 모든 과학의 비밀 과학 문화재에서 찾아라!","한솔교육(2007)","","박은정","","Y"
"397","B013","KOR","세상 모든 수학자의 수학이야기","꿈소담이(2008)","","김숙희","","Y"
"400","B013","KOR","소원을 들어주는 선물","웅진주니어(2006)","","김선희","","Y"
"401","B013","KOR","소피가 꿈을 이루었어요","웅진닷컴(2004)","","딕 킹 스미스","엄혜숙","Y"
"402","B013","KOR","솔개가 된 임금","창비(2005)","","이원수 엮음","","Y"
"403","B013","KOR","순 우리말 동화","영교출판(2006)","","이상배","","Y"
"404","B013","KOR","숨어있는 국보 이야기","가교출판(2007)","","이정주","","Y"
"405","B013","KOR","쉿 우리동네에 가야 무사가 살아요","파란자전거(2009)","","김영숙","","Y"
"406","B013","KOR","신충행 선생님이 들려 주는 안익태","산하(2007)","","신충행","","Y"
"407","B013","KOR","심청전 흥부전","지경사(2005)","","이규희 엮음","","Y"
"408","B013","KOR","쓰레기 형제","삼성당(2007)","","이은하","","Y"
"411","B013","KOR","아낌없이 주는 나무","시공주니어(2004)","","쉘 실버스타인","이재명","Y"
"412","B013","KOR","아프리카의 옥수수 추장","우리교육(2008)","","조호상","","Y"
"413","B013","KOR","야단법석 부처님 박물관","나는책(2015)","","국립중앙박물관","","Y"
"414","B013","KOR","양반님들 물렀거라 똥장군 나가신다","한솔교육(2007)","","허명남 외","","Y"
"415","B013","KOR","양반전 호질","지경사(2005)","","박지원","","Y"
"416","B013","KOR","양재천에 너구리가 살아요","대한교과서(2008)","","김순한","","Y"
"417","B013","KOR","어린이를 위한 화해","위즈덤하우스(2007)","","전지은","","Y"
"55","B003","KOR","오후의 서울 산책","미디어윌","","오세훈","","Y"
"294","B009","KOR","람세스2","문학동네","","크리스티앙 자크","김정란","Y"
"328","B012","KOR","걷지 않은 길","솔","","로버트 프로스트","이상옥","Y"
"329","B012","KOR","사랑하라 한번도 상처받지 않은것처럼","오래된미래","","류시화","","Y"
"330","B012","KOR","지금 알고 있는 걸 그때도 알았더라면","열림원","","류시화","","Y"
"335","B012","KOR","오늘 속의 영원 영원 속의 오늘","미래문화사(1996)","","구상","","Y"
"336","B012","KOR","슬픔치약 거울크림","문학과지성사","","김혜순","","Y"
"337","B012","KOR","나목의 꿈","정은문화사","","박금천","","Y"
"338","B012","KOR","하늘과 바람과 별과 시","이괘사(1991)","","윤동주","","Y"
"339","B012","KOR","하늘과 바람과 별과 시","이괘사(1991)","","윤동주","","Y"
"340","B012","KOR","노래의 날개 위에","혜원(2001)","","하이네","임종대","Y"
"341","B012","KOR","내가 사랑하는 사람","열림원","","정호승","","Y"
"342","B012","KOR","나 지금 여기에","청동거울","","송준만","","Y"
"343","B012","KOR","별 헤는 밤","태학당(1993)","","윤동주","","Y"
"344","B012","KOR","목신의 오후","태학당(1993)","","말라르메","안민재","Y"
"345","B012","KOR","나와 나타샤와 흰 당나귀","다산초당(2005)","","백석","","Y"
"346","B012","KOR","참 오래 쓴 가위","문학동네","","이희중","","Y"
"347","B013","KOR","493백제 시간여행 1 백제의 건국","한성백제박물관(2012)","","한성백제박물관","","Y"
"348","B013","KOR","493백제 시간여행 2 백제의 발전","한성백제박물관(2012)","","한성백제박물관","","Y"
"349","B013","KOR","493백제 시간여행 3 백제사람의 삶","한성백제박물관(2012)","","한성백제박물관","","Y"
"356","B013","KOR","고정욱 선생님이 들려주는 장영실","산하(2007)","","고정욱","","Y"
"357","B013","KOR","과학으로 만나는 호기심 51가지","삼성출판사(2000)","","원영주","","Y"
"358","B013","KOR","교과서 속 세계 인물 100","대교출판(2007)","","고정아","","Y"
"359","B013","KOR","그림 숲에서 만난 작은 친구들","국립중앙박물관(2013)","","김영나","","Y"
"361","B013","KOR","김치는 영어로 해도 김치","푸른책들(2007)","","이금이","","Y"
"362","B013","KOR","깨어나라 고구려","계림닷컴(2007)","","민병덕","","Y"
"366","B013","KOR","꿈을 그리는 소년 메리레","크레용하우스(2007)","","아망딘 마르샬","하정희","Y"
"367","B013","KOR","나 학교 안 갈래!","비룡소(2006)","","미셀린느 먼디","노은정","Y"
"368","B013","KOR","나는야 꼬마 디자이너","토토북(2013)","","김지영","","Y"
"370","B013","KOR","네 손가락의 피아니스트 희아의 일기","파랑새어린이(2006)","","이희아","","Y"
"371","B013","KOR","노빈손 에버랜드에 가다!","뜨인돌","","박경수","","Y"
"372","B013","KOR","노빈손 아이스케키 공화국을 구하라","뜨인돌","","강용범 외","","Y"
"373","B013","KOR","노빈손의 판타스틱 우주 원정대","뜨인돌(2008)","","김경주","","Y"
"374","B013","KOR","논술과 함께하는 우리 속담 이야기 34가지","늘푸른아이들(2006)","","초등논술교사모임 엮음","","Y"
"295","B009","KOR","람세스3","문학동네","","크리스티앙 자크","김정란","Y"
"296","B009","KOR","람세스4","문학동네","","크리스티앙 자크","김정란","Y"
"297","B009","KOR","람세스5","문학동네","","크리스티앙 자크","김정란","Y"
"298","B010","KOR","화두를 만나다","웅진씽크빅(2007)","","김영욱","","Y"
"299","B010","KOR","어느 미술관장의 회상","시공사","","이경성","","Y"
"300","B010","KOR","오래된 것들은 아름답다","컬처그라퍼","","승효상","","Y"
"301","B010","KOR","나는 남이섬에서 산다","나미북스(2007)","","강우현","","Y"
"302","B010","KOR","아홉 마리 금붕어와 먼 곳의 물","현대문학(2013)","","안규철","","Y"
"303","B011","KOR","기빙코리아 2010","아름다운북(2010)","","","","Y"
"304","B011","KOR","내셔널트러스트 문화유산기금 10주년백서","내셔널트러스트(2014)","","","","Y"
"305","B011","KOR","혜곡 최순우가 본 부석사 무량수전","혜곡최순우기념관(2011)","","김인회","","Y"
"306","B012","KOR","꽃은 흩어지고 그리움은 모이고","분도출판사","","이해인","","Y"
"307","B012","KOR","한국대표시인101인선집 김남조","문학사상사","","김남조","","Y"
"308","B012","KOR","명시의 고향 한국편1","지음사(1990)","","한용운 외","","Y"
"309","B012","KOR","명시의 고향 외국편 고시조","지음사(1990)","","구르몽 외","","Y"
"310","B012","KOR","시화집 유치찬란","삼성출판사","","중광","","Y"
"311","B012","KOR","로렐라이","민음사","","하이네","김광규","Y"
"312","B012","KOR","고독","태학당(1992)","","릴케","윤동하","Y"
"313","B012","KOR","사랑하지 않아야 할 사람을 사랑하고 있다면","자음과모음(2005)","","이정하","","Y"
"314","B012","KOR","三間 그곳에서","시와시학사","","안형순","","Y"
"315","B012","KOR","사랑해서 외로웠다","자음과모음","","이정하","","Y"
"316","B012","KOR","사랑할 시간이 많지 않다","세계사시인선","","정현종","","Y"
"317","B012","KOR","내 몸에는 달이 살고 있다","창작과비평사","","이은봉","","Y"
"318","B012","KOR","기억의 섬","전예원","","김순이","","Y"
"319","B012","KOR","너는 한송이 꽃과 같느니","태학당","","하이네","윤동하","Y"
"320","B012","KOR","그 누가 커다란 사랑에 관해서 말하리","태학당","","랭보","김학준","Y"
"321","B012","KOR","떠도는 넋들 잊혀진 전쟁","문학나무","","송준만","","Y"
"323","B012","KOR","만남에서 동반까지","명선사(1989)","","박렬","","Y"
"324","B012","KOR","이슬의 눈","문학과지성사","","마종기","","Y"
"364","B013","KOR","꽁지 닷 발 주둥이 닷 발","보리(2005)","","서정오","","Y"
"17","B002","KOR","문화 콘텐츠 비즈니스론","진한도서","","임은모","","Y"
"43","B002","KOR","SHINSEGAE STYLE","신세계(2014)","","","","Y"
"84","B004","KOR","박일순","인 갤러리","","","","Y"
"271","B009","KOR","파울라2","민음사","","이사벨 아옌데","권미선","Y"
"272","B009","KOR","달을 따는 이야기","문학동네","","마에바 푸파르","송의경","Y"
"274","B009","KOR","Q&A","문학동네","","비카스 스와루프","강주헌","Y"
"275","B009","KOR","거울 속의 그림","솔","","김정","","Y"
"276","B009","KOR","1Q84(1)","문학동네","","무라카미 하루키","양윤옥","Y"
"277","B009","KOR","1Q84(2)","문학동네","","무라카미 하루키","양윤옥","Y"
"278","B009","KOR","1Q84(3)","문학동네","","무라카미 하루키","양윤옥","Y"
"279","B009","KOR","왜 나는 너를 사랑하는가","청미래","","알랭 드 보통","정영목","Y"
"280","B009","KOR","들개와 선임하사","디자인하우스","","최동열","","Y"
"281","B009","KOR","티베트의 고독","아라크네","","알라이","지쿤","Y"
"282","B009","KOR","나무인간","현대문학","","조안 스파르","임미경","Y"
"283","B009","KOR","위기의 여자","정우사","","시몬느 드 보봐르","오증자","Y"
"284","B009","KOR","압록강은 흐른다","범우사","","이미륵","전혜린","Y"
"285","B009","KOR","그날 엄마는 죽고 싶었다","이가서","","최일옥","","Y"
"286","B009","KOR","여우사냥","문학과지성사","","윤후명","","Y"
"287","B009","KOR","아랑은 왜","문학과지성사","","김영하","","Y"
"288","B009","KOR","유혹의 기술","이마고","","로버트 그린","강미경","Y"
"289","B009","KOR","삼십 년보다 길었던 그 열흘","고려원","","이부직","","Y"
"290","B009","KOR","좁은 방의 영혼","예문서원","","마루야마 겐지","김춘미","Y"
"291","B009","KOR","11분","문학동네","","파울로 코엘료","이상해","Y"
"292","B009","KOR","오자히르","문학동네","","파울로 코엘료","최정수","Y"
"325","B012","KOR","님의 침묵","미래사(2000)","","한용운","","Y"
"377","B013","KOR","대륙의 꿈 주몽","베틀북(2004)","","김종룔","","Y"
"427","B013","KOR","의식주로 본 지구촌 풍속 기행","산하(2007)","","김현숙 외","","Y"
"58","B003","KOR","희망을 걷다","하루헌","","박원순","","Y"
"81","B004","KOR","자수문양","대원사(2005)","","","","Y"
"322","B012","KOR","숨어사는 즐거움","녹두","","강제윤","","Y"
"369","B013","KOR","나무야 나무야 겨울 나무야","웅진주니어(2005)","","이원수","","Y"
"423","B013","KOR","우주로 날아간 뒤주 왕자","교학사","","김은숙","","Y"
"49","B002","KOR","주식투자 불변의 법칙","원앤원북스","","이용림","","Y"
"53","B003","KOR","타쉬","샘터","","사브리에 텐베르켄","엄정순","Y"
"93","B004","KOR","천년의 황금도시 경주","북촌미술관(2006)","","","","Y"
"106","B004","KOR","통영 명품으로 빛나다","통영시립박물관(2015)","","","","Y"
"389","B013","KOR","미야자키 하야오","한국헤밍웨이","","최수복","","Y"
"31","B002","KOR","플레잉 경영","21세기북스(2010)","","이혁병","","Y"
"110","B004","KOR","쉼   ","국립민속박물관(2013)","","","","Y"
"120","B004","KOR","나의 벗 나의 애장품","가나아트(2013)","","","","Y"
"27","B002","KOR","중국의 부자들","책이있는마을","","현준","","Y"
"70","B004","KOR","세밀가귀","LEEUM(2015)","","LEEUM","","Y"
"124","B005","KOR","마을을 상상하는 20가지 방법","서울특별시[샨티]","","","","Y"
"149","B006","KOR","mega jeans","국립민속박물관","","","","Y"
"152","B006","KOR","그 따뜻한 이별의 기억","국립민속박물관(2010)","","","","Y"
"216","B008","KOR","서울의 문화재6","서울특별시 시사편찬위원회(2011)","","박원순","","Y"
"222","B008","KOR","일상 속 20세기 도시문화유산의 가치와 보존","서울특별시(2010)","","","","Y"
"154","B006","KOR","종가","국립민속박물관","","","","Y"
"168","B006","KOR","경기도 파주시 문산읍 임진리","국립민속박물관(2015)","","김형준","","Y"
"203","B008","KOR","서울의 근현대 음식","서울특별시 시사편찬위원회(2014)","","주영하","","Y"
"231","B008","KOR","송림수제화의 장인들","국립민속박물관(2014)","","하도겸","","Y"
"791","B013","KOR","어린왕자","삼지사","","생텍쥐페리","","Y"
"808","B013","KOR","메아리 에코와 수선화 총각 나르키소스","한얼교육","","신화나라 탐사회","","Y"
"238","B008","KOR","북정마을","아름다운 북정","","","","Y"
"827","B013","KOR","아름다운 아탈란테와 황금 사과","한얼교육","","신화나라 탐사회","","Y"
"834","B013","KOR","아이네이아스여 새 땅에서 새 나라를!","한얼교육","","신화나라 탐사회","","Y"
"867","B013","KOR","안데르센","프뢰벨","","김서정","","Y"
"852","B013","KOR","아마존 강의 전설","오로라북스","","실비아 두보보이","김영주","Y"
"873","B013","KOR","방정환","프뢰벨","","김병규","","Y"
"916","B013","KOR","만희네 집","길벗어린이(1995)","","권윤덕","","Y"
"928","B015","KOR","대화","샘터","","피천득 외","","Y"
"979","B015","KOR","생각하는 미친놈","센추리원(2011)","","박서원","","Y"
"995","B015","KOR","사람만이 희망이다","헤냄(1997)","","박노해","","Y"
"997","B015","KOR","마음을 그리다","북폴리오B","","김혜정","","Y"
"1005","B015","KOR","처음처럼","랜덤하우스","","신영복","","Y"
"893","B013","KOR","내가 동물의 왕이야","계몽사","","이운","","Y"
"989","B015","KOR","병리학자 이응렬","이국(2014)","","이국","비매품","Y"
"1081","B020","KOR","매일 읽는 인문학","천지인","","선정규","","Y"
"1053","B017","KOR","아름다운 투쟁","대청미디어","","김희선","","Y"
"1108","B020","KOR","정보사회의 이데올로기","커뮤니케이션북스","","이진로","","Y"
"1116","B020","KOR","마음을 다스리는 간디의 건강철학","뜨란","","간디","김남주","Y"
"1086","B020","KOR","탈경계 인문학","이화여자대학교 이화인문과학원","","김학동 외","","Y"
"1120","B020","KOR","질투","두로","","알랭 로브그리에","민희식","Y"
"449","B013","KOR","토끼전","해와나무(2004)","","김기민","","Y"
"481","B013","KOR","누나 별","삼성출판사(2015)","","오영수 외","","Y"
"486","B013","KOR","동백꽃","삼성출판사(2015)","","김유정 외","","Y"
"498","B013","KOR","운영전","삼성출판사(2015)","","","","Y"
"501","B013","KOR","눈뜨는 시절","삼성출판사(2015)","","이원수 외","","Y"
"517","B013","KOR","박씨전","삼성출판사(2015)","","","","Y"
"462","B013","KOR","동백꽃","삼성출판사(2015)","","김유정 외","","Y"
"474","B013","KOR","운영전","삼성출판사(2015)","","","","Y"
"526","B013","KOR","돌다리","삼성출판사(2015)","","이태준 외","","Y"
"534","B013","KOR","홍당무","삼성출판사(2015)","","쥘 르나르","강정규","Y"
"543","B013","KOR","죄와 벌","삼성출판사(2015)","","도스토옙스키","안희웅","Y"
"547","B013","KOR","노인과 바다","삼성출판사(2015)","","헤밍웨이","강정규","Y"
"566","B013","KOR","변신","삼성출판사(2015)","","프린츠 카프카","강정규","Y"
"582","B013","KOR","홍당무","삼성출판사(2015)","","쥘 르나르","강정규","Y"
"500","B013","KOR","이상한 선생님","삼성출판사(2015)","","채만식 외","","Y"
"585","B013","KOR","탈무드","삼성출판사(2015)","","","한상남","Y"
"618","B013","KOR","올리버 트위스트","삼성출판사(2015)","","찰스 디킨스","한상숙","Y"
"708","B013","KOR","우리 몸","삼성출판사(2014)","","","","Y"
"661","B013","KOR","부활","삼성출판사(2015)","","니콜라예비치 톨스토이","이동렬","Y"
"663","B013","KOR","안나 카레니나","삼성출판사(2015)","","니콜라예비치 톨스토이","서인영","Y"
"668","B013","KOR","오 헨리 단편선","삼성출판사(2015)","","오 헨리","권영미","Y"
"669","B013","KOR","주홍 글씨","삼성출판사(2015)","","너대니얼 호손","김현화","Y"
"670","B013","KOR","카라마조프의 형제들","삼성출판사(2015)","","도스토옙스키","안희웅","Y"
"671","B013","KOR","모비 딕","삼성출판사(2015)","","허너 멜빌","한상남","Y"
"673","B013","KOR","삼국지(상)","삼성출판사(2015)","","나관중","고영직","Y"
"674","B013","KOR","삼국지(하)","삼성출판사(2015)","","나관중","고영직","Y"
"680","B013","KOR","만화 한국사6 조선시대전기","삼성출판사(2015)","","이이화","","Y"
"681","B013","KOR","만화 한국사7 조선시대중기","삼성출판사(2015)","","이이화","","Y"
"682","B013","KOR","만화 한국사8 조선시대후기","삼성출판사(2015)","","이이화","","Y"
"684","B013","KOR","만화 한국사1 선사시대","삼성출판사(2015)","","이이화","","Y"
"686","B013","KOR","만화 한국사3 삼국시대후기","삼성출판사(2015)","","이이화","","Y"
"688","B013","KOR","만화 한국사5 고려시대","삼성출판사(2015)","","이이화","","Y"
"693","B013","KOR","만화 한국사1 선사시대","삼성출판사(2015)","","이이화","","Y"
"694","B013","KOR","만화 한국사2 삼국시대","삼성출판사(2015)","","이이화","","Y"
"695","B013","KOR","만화 한국사3 삼국시대후기","삼성출판사(2015)","","이이화","","Y"
"696","B013","KOR","만화 한국사4 남북국시대","삼성출판사(2015)","","이이화","","Y"
"697","B013","KOR","만화 한국사5 고려시대","삼성출판사(2015)","","이이화","","Y"
"709","B013","KOR","동물","삼성출판사(2014)","","","","Y"
"710","B013","KOR","세균과 바이러스","삼성출판사(2014)","","","","Y"
"711","B013","KOR","식물왕국","삼성출판사(2014)","","","","Y"
"728","B013","KOR","우리 몸","삼성출판사(2014)","","","","Y"
"729","B013","KOR","동물","삼성출판사(2014)","","","","Y"
"730","B013","KOR","세균과 바이러스","삼성출판사(2014)","","","","Y"
"731","B013","KOR","식물왕국","삼성출판사(2014)","","","","Y"
"732","B013","KOR","우주","삼성출판사(2014)","","","","Y"
"733","B013","KOR","우주탐사단","삼성출판사(2014)","","","","Y"
"734","B013","KOR","지구탐험","삼성출판사(2014)","","","","Y"
"770","B013","KOR","귀여운 곤충 친구들/달팽이 돌돌이","한국루벤스","","다카이에 히로시게","윤태중","Y"
"771","B013","KOR","귀여운 곤충 친구들/무당벌레 점박이","한국루벤스","","다카이에 히로시게","윤태중","Y"
"772","B013","KOR","귀여운 곤충 친구들/장수풍뎅이 붕이","한국루벤스","","다카이에 히로시게","윤태중","Y"
"1155","B023","KOR","국민세금 1원도 소중하다","대통령직인수위원회(2008)","","","","Y"
"1157","B023","KOR","학교교육 이렇게 살리자","나남출판","","문용린 외","","Y"
"683","B013","KOR","만화 한국사9 일제시대와광복","삼성출판사(2015)","","이이화","","Y"
"699","B013","KOR","만화 한국사7 조선시대중기","삼성출판사(2015)","","이이화","","Y"
"700","B013","KOR","만화 한국사8 조선시대후기","삼성출판사(2015)","","이이화","","Y"
"701","B013","KOR","만화 한국사9 일제시대와광복","삼성출판사(2015)","","이이화","","Y"
"702","B013","KOR","위기탈출","삼성출판사(2014)","","","","Y"
"703","B013","KOR","잠과 두뇌","삼성출판사(2014)","","","","Y"
"704","B013","KOR","요리과학","삼성출판사(2014)","","","","Y"
"705","B013","KOR","과학수사","삼성출판사(2014)","","","","Y"
"706","B013","KOR","미스터리","삼성출판사(2014)","","","","Y"
"707","B013","KOR","영화과학","삼성출판사(2014)","","","","Y"
"718","B013","KOR","화학탐험","삼성출판사(2014)","","","","Y"
"719","B013","KOR","생활과학","삼성출판사(2014)","","","","Y"
"720","B013","KOR","물리랜드","삼성출판사(2014)","","","","Y"
"721","B013","KOR","전기","삼성출판사(2014)","","","","Y"
"722","B013","KOR","위기탈출","삼성출판사(2014)","","","","Y"
"723","B013","KOR","잠과 두뇌","삼성출판사(2014)","","","","Y"
"724","B013","KOR","요리과학","삼성출판사(2014)","","","","Y"
"725","B013","KOR","과학수사","삼성출판사(2014)","","","","Y"
"726","B013","KOR","미스터리","삼성출판사(2014)","","","","Y"
"738","B013","KOR","화학탐험","삼성출판사(2014)","","","","Y"
"739","B013","KOR","생활과학","삼성출판사(2014)","","","","Y"
"740","B013","KOR","물리랜드","삼성출판사(2014)","","","","Y"
"741","B013","KOR","전기","삼성출판사(2014)","","","","Y"
"742","B013","KOR","위기탈출","삼성출판사(2014)","","","","Y"
"743","B013","KOR","잠과 두뇌","삼성출판사(2014)","","","","Y"
"758","B013","KOR","화학탐험","삼성출판사(2014)","","","","Y"
"759","B013","KOR","생활과학","삼성출판사(2014)","","","","Y"
"760","B013","KOR","물리랜드","삼성출판사(2014)","","","","Y"
"761","B013","KOR","전기","삼성출판사(2014)","","","","Y"
"762","B013","KOR","잠자는 숲속의 공주","한국듀이","","박형준","","Y"
"774","B013","KOR","귀여운 곤충 친구들/애사슴벌레 딱딱이(일어)","한국루벤스","","다카이에 히로시게","","Y"
"775","B013","KOR","귀여운 곤충 친구들/공벌레 동글이(일어)","한국루벤스","","다카이에 히로시게","","Y"
"776","B013","KOR","귀여운 곤충 친구들/장수풍뎅이 붕이(일어)","한국루벤스","","다카이에 히로시게","","Y"
"1152","B023","KOR","중국에게 묻다","학고재","","이광재 외","","Y"
"1153","B023","KOR","흔들리는 분단체제","창작과비평사","","백낙청","","Y"
"1156","B023","KOR","전병헌 비타민 정치","연인M&B","","전병헌","","Y"
"1159","B023","KOR","함께 이루는 남녀평등","나남출판","","심영희 외","","Y"
"1234","B026","KOR","물은 답을 알고 있다2","나무심는사람","","에모토 마사루","양억관","Y"
"744","B013","KOR","요리과학","삼성출판사(2014)","","","","Y"
"745","B013","KOR","과학수사","삼성출판사(2014)","","","","Y"
"746","B013","KOR","미스터리","삼성출판사(2014)","","","","Y"
"747","B013","KOR","영화과학","삼성출판사(2014)","","","","Y"
"748","B013","KOR","우리 몸","삼성출판사(2014)","","","","Y"
"749","B013","KOR","동물","삼성출판사(2014)","","","","Y"
"750","B013","KOR","세균과 바이러스","삼성출판사(2014)","","","","Y"
"751","B013","KOR","식물왕국","삼성출판사(2014)","","","","Y"
"752","B013","KOR","우주","삼성출판사(2014)","","","","Y"
"753","B013","KOR","우주탐사단","삼성출판사(2014)","","","","Y"
"754","B013","KOR","지구탐험","삼성출판사(2014)","","","","Y"
"755","B013","KOR","지구역사","삼성출판사(2014)","","","","Y"
"756","B013","KOR","날씨","삼성출판사(2014)","","","","Y"
"757","B013","KOR","세계의 건출물","삼성출판사(2014)","","","","Y"
"765","B013","KOR","맛있겠다 냠냠","재능교육","","김향수","","Y"
"766","B013","KOR","맛있는 냄새를 찾아줘","재능교육","","김향수","","Y"
"767","B013","KOR","내친구 아기흙","재능교육","","재능교육 편집부","","Y"
"768","B013","KOR","귀여운 곤충 친구들/애사슴벌레 딱딱이","한국루벤스","","다카이에 히로시게","윤태중","Y"
"769","B013","KOR","귀여운 곤충 친구들/풀무치 폴짝이","한국루벤스","","다카이에 히로시게","윤태중","Y"
"777","B013","KOR","마당을 나온 암탉","사계절","","황선미","","Y"
"778","B013","KOR","그 많던 공룡은 다 어디로 갔을까?","대교베텔스만","","줄리아 부루스","최수희","Y"
"1144","B022","KOR","우리풀백과사전","현암사","","이유미 외","","Y"
"1145","B022","KOR","별의 일생","한국프뢰벨주식회사","","우종옥","","Y"
"1146","B022","KOR","나그네별 혜성","한국프뢰벨주식회사","","우종옥","","Y"
"1147","B022","KOR","나무의 힘","태동출판사","","야스민","박원영","Y"
"1148","B022","KOR","광릉의 숲","산림청 국립수목원","","","","Y"
"1149","B022","KOR","야생화","대원사","","김태정","","Y"
"1150","B022","KOR","한국의 5대강을 가다","내일신문","","남준기","","Y"
"1151","B023","KOR","대한민국 어디로 가야 하는가","휴머니스트","","이광재","","Y"
"1160","B023","KOR","한국의 시민운동 프로크루스테스의 침대","당대","","박원순","","Y"
"1161","B023","KOR","사슴을 쫓는 자는 토끼를 돌아보지 않는다","열린터","","신동준","","Y"
"1162","B023","KOR","우리 시대의 정치와 언론","한울","","김재홍","","Y"
"1229","B026","KOR","숲에서 희망을 찾다","(사)생명의숲국민운동(2007)","","","","Y"
"1230","B026","KOR","파딩숲의 동물들1","창작과비평사(2000)","","콜린 단","최선경","Y"
"1231","B026","KOR","파딩숲의 동물들2","창작과비평사(2000)","","콜린 단","최선경","Y"
"1232","B026","KOR","지구촌 환경이야기1","청년사(2002)","","최열","","Y"
"1233","B026","KOR","지구촌 환경이야기2","청년사(2002)","","최열","","Y"
"779","B013","KOR","스팟의 달걀 찾기","한국프뢰벨주식회사","","에릭 힐","","Y"
"780","B013","KOR","우리 해피 못 봤니?","계몽사","","조경숙","","Y"
"781","B013","KOR","눈사람","한국프뢰벨주식회사","","레이먼드 브릭스","신지식","Y"
"782","B013","KOR","아기 고릴라","한국프뢰벨주식회사","","루스 번스타인","토끼와 거북","Y"
"783","B013","KOR","애벌레의 꿈","한국프뢰벨주식회사","","매리 머피","토끼와 거북","Y"
"784","B013","KOR","엠마와 아기양","한국프뢰벨주식회사","","킴 루이스","이상희","Y"
"785","B013","KOR","꾀돌이 용 지카제카","킨더랜드","","질 에뒤아르","신선영","Y"
"786","B013","KOR","쑥쑥 물약의 비밀","킨더랜드","","올리브 스튜디오","","Y"
"787","B013","KOR","엄마는 너를 사랑해","킨더랜드","","데비 글리오리","서애경","Y"
"788","B013","KOR","꼭꼭 숨어라 뽀로로!","키즈아이콘","","","","Y"
"1141","B022","KOR","조선의 임수","지오북","","생명의숲국민운동","","Y"
"1142","B022","KOR","숲길 정비 메뉴얼","수문출판사","","오구균 외","","Y"
"1143","B022","KOR","우리나무백과사전","현암사","","서민환 외","","Y"
"1163","B023","KOR","포스트 시대의 문화정치","커뮤니케이션북스","","전규찬","","Y"
"1164","B023","KOR","외교의 현장에서","외교통상부 ","","외교통상부 직원 외","","Y"
"1165","B023","KOR","공공외교와 한국국제교류재단","한국국제교류재단","","","","Y"
"1166","B023","KOR","삼수생의 지역사랑","남진출판","","장석제","","Y"
"1167","B023","KOR","엄마 국회의원 왜해?","나무의 숲","","이미경","","Y"
"1168","B023","KOR","인권시대를 향하여","나남출판","","김성재 외","","Y"
"1169","B023","KOR","박원순 변호사의 일본시민사회기행","아르케","","박원순","","Y"
"1170","B023","KOR","독일사회를 인터뷰하다","논형","","박원순","","Y"
"1171","B023","KOR","어디가 중도며 어째서 변혁인가","창비(2004)","","백낙청","","Y"
"1172","B024","KOR","신과 나눈 이야기1","아름드리","","닐도날드월쉬","조경숙","Y"
"1220","B026","KOR","발견 하늘에서 본 지구 366","새물결(2003)","","얀 아르튀스-베르트랑","","Y"
"1221","B026","KOR","열린마음 푸른마음","신지성사(2000)","","전덕기","","Y"
"1222","B026","KOR","오래된 미래","녹색평론사","","헬레나 노르베리 호지","","Y"
"1224","B026","KOR","동강에는 굽이마다 생명이 흐른다","다른세상(1999)","","진성민","","Y"
"1226","B026","KOR","P.O.E.M 세상을 밝게 만든 100인","환경재단","","김진형 외","","Y"
"1227","B026","KOR","숲을 걷다","산림청(2004)","","김영도 외","","Y"
"1228","B026","KOR","친환경적 상수원 관리를 위한 한중일의 새로운 모색","환경정의시민연대(2002)","","환경정의시민연대","","Y"
"1173","B024","KOR","신과 나눈 이야기2","아름드리","","닐도날드월쉬","조경숙","Y"
"1174","B024","KOR","신과 나누는 우정","아름다리 미디어","","닐도날드월쉬","조경숙","Y"
"1175","B024","KOR","박상증과 에큐메니컬 운동","삼인","","강주화","","Y"
"1176","B024","KOR","인도로 간 붓다","청미래(2005)","","암베드카르","이상근","Y"
"1177","B024","KOR","내 가슴을 다시 뛰게 할 잊혀진 질문","명진출판","","차동엽","","Y"
"1178","B024","KOR","말씀이 나의 두 손에","바오로딸(1995)","","피에르파올라 타칼리티","김홍래","Y"
"1179","B024","KOR","기독교 신앙과 신학의 반성","이화여자대학교출판부(1994)","","서광선","","Y"
"1180","B024","KOR","올해 만날 50천사","분도출판사(2000)","","안셀름 그륀","서명옥","Y"
"1181","B024","KOR","과학의 원수","학민사","","계봉우","","Y"
"1203","B025","KOR","북촌풍경","북촌한옥마을","","","","Y"
"1204","B025","KOR","북촌풍경","북촌한옥마을","","","","Y"
"1205","B025","KOR","건축가 김수근 공간을 디자인하다","나무숲(2007)","","황두진","","Y"
"1206","B025","KOR","경복궁과 창덕궁 사이 북촌에 산다","웃고협동조합(2014)","","김규성 외","","Y"
"1207","B025","KOR","서울 이야기","현실문화(2008)","","정기용","","Y"
"1208","B025","KOR","알기쉬운 한국건축 용어사전","동녘(2007)","","김왕직","","Y"
"1209","B026","KOR","물은 답을 알고 있다","나무심는사람(2002)","","에모토 마사루","양억관","Y"
"1210","B026","KOR","우리 문명의 마지막 시간들","아름드리미디어(2004)","","톰 하트만","김옥수","Y"
"1211","B026","KOR","지구가 정말 이상하다","살림(2005)","","이기영","","Y"
"1212","B026","KOR","제인 구달의 생명 사랑 십계명","바다출판사(2003)","","제인구달","최재천","Y"
"1213","B026","KOR","차윤정의 우리숲 산책","웅진닷컴(2002)","","차윤정","","Y"
"1214","B026","KOR","지구온난화 충격리포트","미디어윌(2007)","","야마모토 료이치","김은하","Y"
"1215","B026","KOR","자연환경해설개론","수문출판사(2005)","","조계중","","Y"
"1216","B026","KOR","녹색사회의 탐색","한울(2001)","","조명래","","Y"
"1217","B026","KOR","책으로 만든 환경의 역습","김영사","","박정훈","","Y"
"1218","B026","KOR","새 세기의 환경 이야기","열화당(2001)","","김원","","Y"
"1219","B026","KOR","지구화 되돌아보기와 넘어서기","환경과생명(2009)","","조명래","","Y"
"1223","B026","KOR","강","문학과지성사(1997)","","서정인","","Y"
"41","B002","KOR","예술의 힘","문화관광부","","","","Y"
"946","B015","KOR","무심","수선재","","문화영","","Y"
"264","B009","KOR","나무 ","열린책들","","베르나르베르베르","이세욱","Y"
"265","B009","KOR","사랑의 야찬","문학동네","","미셸 투르니에","이세욱","Y"
"266","B009","KOR","오빠가 돌아왔다","창비 ","","김영하","","Y"
"267","B009","KOR","사랑의 예감","문학사상사","","김지원 외","","Y"
"268","B009","KOR","그 밤의 경숙","현대문학","","김숨 외","","Y"
"269","B009","KOR","마음 ","문예출판사","","나쓰메 소세키","오유리","Y"
"270","B009","KOR","파울라1","민음사","","이사벨 아옌데","권미선","Y"
"273","B009","KOR","포옹","문학동네","","필립 빌랭","이재룡","Y"
"233","B008","KOR","동네再발견","서울특별시(2008)","","","","Y"
"918","B013","KOR","넉점반","창비(2004)","","윤석중","","Y"
"1018","B015","KOR","호미","열림원","","박완서","","Y"
"1119","B020","KOR","김동리와 그의 시대","민음사","","김윤식","","Y"
"478","B013","KOR","돌다리","삼성출판사(2015)","","이태준 외","","Y"
"633","B013","KOR","탈무드","삼성출판사(2015)","","","한상남","Y"
"1182","B024","KOR","시간의 마스터","비전과리더십","","한홍","","Y"
"1183","B024","KOR","과학의 지혜","이화여자대학교출판부(1994)","","핸버리 브라운","황설중","Y"
"1184","B024","KOR","동행","무우수","","조지 크레인","정진영","Y"
"1185","B024","KOR","신이 된 남자","책세상","","제랄드 메사티에","최경란 외","Y"
"1186","B024","KOR","참으로 소중하기에…조금씩 놓아주기","중앙M&B(2001)","","최일도","","Y"
"1187","B025","KOR","북촌 탐닉","푸르메(2009)","","옥선희","","Y"
"1188","B025","KOR","서울 북촌에서","민음인(2009)","","김유경","","Y"
"1189","B025","KOR","북촌 한옥마을의 서울학적 연구","민속원(2013)","","이에나가 유코","","Y"
"1190","B025","KOR","한국건축답사수첩","동녘(2006)","","한국건축역사학회","","Y"
"1191","B025","KOR","백가기행","디자인하우스(2010)","","조용헌","","Y"
"1192","B025","KOR","한옥에 살어리랏다","돌베개(2007)","","새로운한옥을위한건축인모임","","Y"
"1193","B025","KOR","한옥 하늘과 땅과 사람이다","연두와파랑(2014)","","이태훈","","Y"
"1194","B025","KOR","한국근대건축","곰시(2011)","","이광노 엮음","","Y"
"1195","B025","KOR","지혜로 지은 집 한국 건축","현암사(2011)","","김도경","","Y"
"1196","B025","KOR","한옥","한국내셔널트러스트(2008)","","이성미","","Y"
"1197","B025","KOR","북촌","눈빛(2010)","","한정식 사진집","","Y"
"1198","B025","KOR","가회동","곰시(2011)","","이광노","","Y"
"1199","B025","KOR","북촌풍경","북촌한옥마을","","","","Y"
"1200","B025","KOR","북촌풍경","북촌한옥마을","","","","Y"
"1201","B025","KOR","북촌풍경","북촌한옥마을","","","","Y"
"1202","B025","KOR","북촌풍경","북촌한옥마을","","","","Y"
"360","B013","KOR","금방울전","창비(2008)","","김지우","","Y"
"66","B004","KOR","BOOMOON ","학고재","","권부문","","Y"
"263","B009","KOR","셀프","작가정신","","얀 마텔","황보석","Y"
"868","B013","KOR","백남준","프뢰벨","","김종렬","","Y"
"148","B006","KOR","혼례","국립민속박물관(2012)","","","","Y"
"232","B008","KOR","동네再발견","서울특별시(2008)","","","","Y"
"447","B013","KOR","콩쥐팥쥐","예림당(2006)","","정의명","","Y"
"1225","B026","KOR","동강 아리랑","수문출판사(1999)","","진용선","","Y"
"866","B013","KOR","페스탈로치","프뢰벨","","황선미","","Y"
"256","B009","KOR","태백산맥7","한길사(1988)","","조정래","","Y"
"257","B009","KOR","태백산맥8","한길사(1989)","","조정래","","Y"
"258","B009","KOR","태백산맥9","한길사(1989)","","조정래","","Y"
"259","B009","KOR","태백산맥10","한길사(1989)","","조정래","","Y"
"260","B009","KOR","허균 최후의 19일","푸른숲(1999)","","김탁환","","Y"
"261","B009","KOR","불안의 꽃","문학과지성사","","마르틴 발저","배수아","Y"
"262","B009","KOR","모리와 함께한 화요일","세종서적","","미치 앨봄","공경희","Y"
"1009","B015","KOR","하소서","세계사","","박완서","","Y"
"1076","B019","KOR","cookand","","","","","Y"