"서비스구분","서비스ID","대분류명","소분류명","서비스상태","서비스명","결제방법","장소명","서비스대상","바로가기URL","장소X좌표","장소Y좌표","서비스개시시작일시","서비스개시종료일시","접수시작일시","접수종료일시","지역명"
"연계","SEEDFIX-731","체육시설","파크골프장","접수중","서남물재생센터","무료","센터내","일반시민","http://parkgolf.seonam.seoul.kr/","","","2020-01-01 00:00:00.0","","2020-01-01 00:00:00.0","","강서구"
"연계","SEEDFIX-729","체육시설","테니스장","접수중","서남물재생센터","무료","센터내","일반시민","http://tennis.seonam.seoul.kr/","","","2020-01-01 00:00:00.0","","2020-01-01 00:00:00.0","","강서구"
"연계","SEEDFIX-730","체육시설","탁구장","접수중","서남물재생센터","무료","센터내","일반시민","http://tennis.seonam.seoul.kr/","","","2020-01-01 00:00:00.0","","2020-01-01 00:00:00.0","","강서구"
"자체","S191116152913273377","체육시설","족구장","예약일시중지","2020년 족구장1-강서","유료","강서한강공원>족구장(12)","제한없음","http://yeyak.seoul.go.kr/reservation/view.web?rsvsvcid=S191116152913273377","37.58468979624671","126.82144004654432","2019-12-01 00:00:00.0","2020-12-31 00:00:00.0","2019-12-01 00:00:00.0","2020-12-31 00:00:00.0","강서구"
"자체","S191116153521679131","체육시설","족구장","예약일시중지","2020년 족구장2-강서","유료","강서한강공원>족구장(12)","제한없음","http://yeyak.seoul.go.kr/reservation/view.web?rsvsvcid=S191116153521679131","37.58468979624671","126.82144004654432","2019-12-01 00:00:00.0","2020-12-31 00:00:00.0","2019-12-01 00:00:00.0","2020-12-31 00:00:00.0","강서구"
"연계","SEEDFIX-732","체육시설","축구장","접수중","서남물재생센터","무료","센터내","일반시민","http://football.seonam.seoul.kr/","","","2020-01-01 00:00:00.0","","2020-01-01 00:00:00.0","","강서구"